tb_add_test.vcd
$date
	Sat May 17 11:33:47 2025
$end
$version
	Icarus Verilog
$end
$timescale
	1ps
$end
$scope module tb_add_test $end
$var wire 32 ! i_mem_addr [31:0] $end
$var wire 4 " d_mem_wen [3:0] $end
$var wire 32 # d_mem_wdata [31:0] $end
$var wire 32 $ d_mem_addr [31:0] $end
$var parameter 32 % CLK_PERIOD $end
$var parameter 32 & MAX_SIM_CYCLES $end
$var parameter 32 ' MEM_SIZE_WORDS $end
$var parameter 64 ( RESET_DURATION $end
$var reg 1 ) clk $end
$var reg 32 * d_mem_rdata [31:0] $end
$var reg 32 + i_mem_rdata [31:0] $end
$var reg 1 , rst_n $end
$var integer 32 - cycle_count_sim [31:0] $end
$var integer 32 . i [31:0] $end
$scope module u_cpu $end
$var wire 1 ) clk $end
$var wire 32 / d_mem_rdata [31:0] $end
$var wire 32 0 i_mem_rdata [31:0] $end
$var wire 32 1 id_ex_pc_plus_4_for_jalr_jal [31:0] $end
$var wire 1 , rst_n $end
$var wire 1 2 mem_zero_flag $end
$var wire 1 3 mem_wb_reg_write_ctrl_from_exmem $end
$var wire 1 4 mem_wb_reg_write $end
$var wire 5 5 mem_wb_rd_addr_from_exmem [4:0] $end
$var wire 5 6 mem_wb_rd_addr [4:0] $end
$var wire 2 7 mem_wb_mem_to_reg_ctrl_from_exmem [1:0] $end
$var wire 2 8 mem_wb_mem_to_reg [1:0] $end
$var wire 32 9 mem_wb_mem_rdata_from_mem [31:0] $end
$var wire 32 : mem_wb_mem_rdata [31:0] $end
$var wire 32 ; mem_wb_data [31:0] $end
$var wire 32 < mem_wb_alu_result_from_exmem [31:0] $end
$var wire 32 = mem_wb_alu_result [31:0] $end
$var wire 32 > if_id_pc_plus_4 [31:0] $end
$var wire 32 ? if_id_instr [31:0] $end
$var wire 32 @ id_ex_rs2_data [31:0] $end
$var wire 5 A id_ex_rs2_addr [4:0] $end
$var wire 32 B id_ex_rs1_data [31:0] $end
$var wire 5 C id_ex_rs1_addr [4:0] $end
$var wire 1 D id_ex_reg_write $end
$var wire 5 E id_ex_rd_addr [4:0] $end
$var wire 32 F id_ex_pc_plus_4 [31:0] $end
$var wire 1 G id_ex_mem_write $end
$var wire 2 H id_ex_mem_to_reg [1:0] $end
$var wire 1 I id_ex_mem_read $end
$var wire 32 J id_ex_instr [31:0] $end
$var wire 32 K id_ex_imm_ext [31:0] $end
$var wire 1 L id_ex_alu_src $end
$var wire 4 M id_ex_alu_op [3:0] $end
$var wire 32 N i_mem_addr [31:0] $end
$var wire 2 O forward_b_sel [1:0] $end
$var wire 2 P forward_a_sel [1:0] $end
$var wire 1 Q ex_zero_flag $end
$var wire 32 R ex_mem_rs2_data_for_alu [31:0] $end
$var wire 5 S ex_mem_rs2_addr [4:0] $end
$var wire 32 T ex_mem_rs1_data [31:0] $end
$var wire 5 U ex_mem_rs1_addr [4:0] $end
$var wire 1 V ex_mem_reg_write_ctrl $end
$var wire 5 W ex_mem_rd_addr_for_ex [4:0] $end
$var wire 32 X ex_mem_pc_plus_4 [31:0] $end
$var wire 1 Y ex_mem_mem_write_ctrl $end
$var wire 2 Z ex_mem_mem_to_reg_ctrl [1:0] $end
$var wire 1 [ ex_mem_mem_read_ctrl $end
$var wire 32 \ ex_mem_imm_ext [31:0] $end
$var wire 1 ] ex_mem_alu_src $end
$var wire 32 ^ ex_mem_alu_result_pre_fwd [31:0] $end
$var wire 4 _ ex_mem_alu_op [3:0] $end
$var wire 1 ` d_mem_write_ctrl $end
$var wire 4 a d_mem_wen [3:0] $end
$var wire 32 b d_mem_wdata [31:0] $end
$var wire 1 c d_mem_read_ctrl $end
$var wire 32 d d_mem_addr [31:0] $end
$scope module u_ex_stage $end
$var wire 32 e alu_operand_a [31:0] $end
$var wire 1 ) clk $end
$var wire 1 , rst_n $end
$var wire 1 Q zero_flag_o $end
$var wire 32 f rs2_data_i [31:0] $end
$var wire 32 g rs1_data_i [31:0] $end
$var wire 5 h rd_addr_i [4:0] $end
$var wire 32 i mul_result_internal [31:0] $end
$var wire 1 4 mem_wb_reg_write_i $end
$var wire 5 j mem_wb_rd_addr_i [4:0] $end
$var wire 32 k mem_wb_alu_result_i [31:0] $end
$var wire 32 l imm_ext_i [31:0] $end
$var wire 5 m id_ex_rs2_addr_i [4:0] $end
$var wire 5 n id_ex_rs1_addr_i [4:0] $end
$var wire 32 o forwarded_rs2_data [31:0] $end
$var wire 32 p forwarded_rs1_data [31:0] $end
$var wire 2 q forward_b_sel_i [1:0] $end
$var wire 2 r forward_a_sel_i [1:0] $end
$var wire 1 3 ex_mem_reg_write_i $end
$var wire 5 s ex_mem_rd_addr_i [4:0] $end
$var wire 32 t ex_mem_alu_result_i [31:0] $end
$var wire 1 ] alu_src_i $end
$var wire 32 u alu_result_o [31:0] $end
$var wire 32 v alu_result_internal [31:0] $end
$var wire 32 w alu_operand_b [31:0] $end
$var wire 4 x alu_op_i [3:0] $end
$scope module u_alu $end
$var wire 32 y operand_a_i [31:0] $end
$var wire 32 z operand_b_i [31:0] $end
$var wire 5 { shift_amount [4:0] $end
$var wire 4 | alu_op_i [3:0] $end
$var reg 32 } result_o [31:0] $end
$var reg 1 Q zero_flag_o $end
$upscope $end
$scope module u_multiplier $end
$var wire 1 ) clk $end
$var wire 32 ~ operand_a_i [31:0] $end
$var wire 32 !" operand_b_i [31:0] $end
$var wire 1 , rst_n $end
$var wire 64 "" product_unsigned_unsigned [63:0] $end
$var wire 64 #" product_signed_unsigned [63:0] $end
$var wire 64 $" product_signed_signed [63:0] $end
$var wire 4 %" mul_op_i [3:0] $end
$var reg 32 &" result_o [31:0] $end
$upscope $end
$upscope $end
$scope module u_forwarding_unit $end
$var wire 1 ) clk $end
$var wire 1 , rst_n $end
$var wire 1 4 mem_wb_reg_write_i $end
$var wire 5 '" mem_wb_rd_addr_i [4:0] $end
$var wire 5 (" id_ex_rs2_addr_i [4:0] $end
$var wire 5 )" id_ex_rs1_addr_i [4:0] $end
$var wire 1 3 ex_mem_reg_write_i $end
$var wire 5 *" ex_mem_rd_addr_i [4:0] $end
$var reg 2 +" forward_a_sel_o [1:0] $end
$var reg 2 ," forward_b_sel_o [1:0] $end
$upscope $end
$scope module u_id_stage $end
$var wire 1 ) clk $end
$var wire 32 -" id_pc_plus_4_o [31:0] $end
$var wire 5 ." rd_addr_o [4:0] $end
$var wire 5 /" rs1_addr_o [4:0] $end
$var wire 5 0" rs2_addr_o [4:0] $end
$var wire 1 , rst_n $end
$var wire 32 1" wb_data_i [31:0] $end
$var wire 1 4 wb_reg_write_i $end
$var wire 5 2" wb_rd_addr_i [4:0] $end
$var wire 32 3" rs2_data_o [31:0] $end
$var wire 5 4" rs2 [4:0] $end
$var wire 32 5" rs1_data_o [31:0] $end
$var wire 5 6" rs1 [4:0] $end
$var wire 1 D reg_write_o $end
$var wire 5 7" rd [4:0] $end
$var wire 32 8" pc_plus_4_i [31:0] $end
$var wire 7 9" opcode [6:0] $end
$var wire 1 G mem_write_o $end
$var wire 2 :" mem_to_reg_o [1:0] $end
$var wire 1 I mem_read_o $end
$var wire 32 ;" instr_i [31:0] $end
$var wire 32 <" imm_ext_o [31:0] $end
$var wire 7 =" funct7 [6:0] $end
$var wire 3 >" funct3 [2:0] $end
$var wire 1 L alu_src_o $end
$var wire 4 ?" alu_op_o [3:0] $end
$scope module u_control_unit $end
$var wire 3 @" funct3 [2:0] $end
$var wire 7 A" funct7 [6:0] $end
$var wire 7 B" opcode [6:0] $end
$var parameter 4 C" DEFAULT_ALU_OP $end
$var parameter 1 D" DEFAULT_ALU_SRC $end
$var parameter 1 E" DEFAULT_MEM_READ $end
$var parameter 2 F" DEFAULT_MEM_TO_REG $end
$var parameter 1 G" DEFAULT_MEM_WRITE $end
$var parameter 1 H" DEFAULT_REG_WRITE $end
$var parameter 7 I" OPCODE_AUIPC $end
$var parameter 7 J" OPCODE_BRANCH $end
$var parameter 7 K" OPCODE_IMM $end
$var parameter 7 L" OPCODE_JAL $end
$var parameter 7 M" OPCODE_JALR $end
$var parameter 7 N" OPCODE_LOAD $end
$var parameter 7 O" OPCODE_LUI $end
$var parameter 7 P" OPCODE_OP $end
$var parameter 7 Q" OPCODE_STORE $end
$var reg 4 R" alu_op_o [3:0] $end
$var reg 1 L alu_src_o $end
$var reg 1 I mem_read_o $end
$var reg 2 S" mem_to_reg_o [1:0] $end
$var reg 1 G mem_write_o $end
$var reg 1 D reg_write_o $end
$upscope $end
$scope module u_imm_gen $end
$var wire 32 T" imm_ext_o [31:0] $end
$var wire 7 U" opcode [6:0] $end
$var wire 32 V" instr [31:0] $end
$var wire 32 W" imm_u_type [31:0] $end
$var wire 32 X" imm_s_type [31:0] $end
$var wire 32 Y" imm_j_type [31:0] $end
$var wire 32 Z" imm_i_type [31:0] $end
$var wire 32 [" imm_b_type [31:0] $end
$var parameter 7 \" OPCODE_AMO $end
$var parameter 7 ]" OPCODE_AUIPC $end
$var parameter 7 ^" OPCODE_BRANCH $end
$var parameter 7 _" OPCODE_IMM $end
$var parameter 7 `" OPCODE_JAL $end
$var parameter 7 a" OPCODE_JALR $end
$var parameter 7 b" OPCODE_LOAD $end
$var parameter 7 c" OPCODE_LUI $end
$var parameter 7 d" OPCODE_OP $end
$var parameter 7 e" OPCODE_STORE $end
$var parameter 7 f" OPCODE_SYSTEM $end
$var reg 32 g" selected_imm [31:0] $end
$upscope $end
$scope module u_reg_file $end
$var wire 1 ) clk $end
$var wire 32 h" rd_data [31:0] $end
$var wire 5 i" rs1_addr [4:0] $end
$var wire 5 j" rs2_addr [4:0] $end
$var wire 1 , rst_n $end
$var wire 1 4 wen $end
$var wire 32 k" rs2_data [31:0] $end
$var wire 32 l" rs1_data [31:0] $end
$var wire 5 m" rd_addr [4:0] $end
$var integer 32 n" i [31:0] $end
$upscope $end
$upscope $end
$scope module u_if_stage $end
$var wire 1 ) clk $end
$var wire 32 o" i_mem_addr [31:0] $end
$var wire 32 p" i_mem_rdata [31:0] $end
$var wire 32 q" if_id_instr_o [31:0] $end
$var wire 1 , rst_n $end
$var wire 32 r" if_id_pc_plus_4_o [31:0] $end
$var reg 32 s" pc_reg [31:0] $end
$upscope $end
$scope module u_mem_stage $end
$var wire 1 ) clk $end
$var wire 32 t" d_mem_addr_o [31:0] $end
$var wire 32 u" d_mem_rdata_i [31:0] $end
$var wire 32 v" d_mem_wdata_o [31:0] $end
$var wire 32 w" mem_rdata_o [31:0] $end
$var wire 32 x" rs2_data_i [31:0] $end
$var wire 1 , rst_n $end
$var wire 1 ` mem_write_i $end
$var wire 1 c mem_read_i $end
$var wire 4 y" d_mem_wen_o [3:0] $end
$var wire 32 z" alu_result_i [31:0] $end
$upscope $end
$scope module u_pipeline_reg_ex_mem $end
$var wire 1 ) clk $end
$var wire 32 {" ex_alu_result_i [31:0] $end
$var wire 1 Q ex_zero_flag_i $end
$var wire 1 , rst_n $end
$var wire 32 |" ex_rs2_data_i [31:0] $end
$var wire 1 V ex_reg_write_i $end
$var wire 5 }" ex_rd_addr_i [4:0] $end
$var wire 1 Y ex_mem_write_i $end
$var wire 2 ~" ex_mem_to_reg_i [1:0] $end
$var wire 1 [ ex_mem_read_i $end
$var parameter 1 !# NOP_MEM_READ $end
$var parameter 2 "# NOP_MEM_TO_REG $end
$var parameter 1 ## NOP_MEM_WRITE $end
$var parameter 1 $# NOP_REG_WRITE $end
$var reg 32 %# mem_alu_result_o [31:0] $end
$var reg 1 c mem_mem_read_o $end
$var reg 2 &# mem_mem_to_reg_o [1:0] $end
$var reg 1 ` mem_mem_write_o $end
$var reg 5 '# mem_rd_addr_o [4:0] $end
$var reg 1 3 mem_reg_write_o $end
$var reg 32 (# mem_rs2_data_o [31:0] $end
$var reg 1 2 mem_zero_flag_o $end
$upscope $end
$scope module u_pipeline_reg_id_ex $end
$var wire 1 ) clk $end
$var wire 4 )# id_alu_op_i [3:0] $end
$var wire 1 L id_alu_src_i $end
$var wire 32 *# id_imm_ext_i [31:0] $end
$var wire 1 I id_mem_read_i $end
$var wire 2 +# id_mem_to_reg_i [1:0] $end
$var wire 1 G id_mem_write_i $end
$var wire 5 ,# id_rd_addr_i [4:0] $end
$var wire 1 D id_reg_write_i $end
$var wire 5 -# id_rs1_addr_i [4:0] $end
$var wire 32 .# id_rs1_data_i [31:0] $end
$var wire 5 /# id_rs2_addr_i [4:0] $end
$var wire 32 0# id_rs2_data_i [31:0] $end
$var wire 1 , rst_n $end
$var wire 32 1# id_pc_plus_4_i [31:0] $end
$var parameter 4 2# NOP_ALU_OP $end
$var parameter 1 3# NOP_ALU_SRC $end
$var parameter 1 4# NOP_MEM_READ $end
$var parameter 2 5# NOP_MEM_TO_REG $end
$var parameter 1 6# NOP_MEM_WRITE $end
$var parameter 1 7# NOP_REG_WRITE $end
$var reg 4 8# ex_alu_op_o [3:0] $end
$var reg 1 ] ex_alu_src_o $end
$var reg 32 9# ex_imm_ext_o [31:0] $end
$var reg 1 [ ex_mem_read_o $end
$var reg 2 :# ex_mem_to_reg_o [1:0] $end
$var reg 1 Y ex_mem_write_o $end
$var reg 32 ;# ex_pc_plus_4_o [31:0] $end
$var reg 5 <# ex_rd_addr_o [4:0] $end
$var reg 1 V ex_reg_write_o $end
$var reg 5 =# ex_rs1_addr_o [4:0] $end
$var reg 32 ># ex_rs1_data_o [31:0] $end
$var reg 5 ?# ex_rs2_addr_o [4:0] $end
$var reg 32 @# ex_rs2_data_o [31:0] $end
$upscope $end
$scope module u_pipeline_reg_if_id $end
$var wire 1 ) clk $end
$var wire 32 A# if_instr_i [31:0] $end
$var wire 32 B# if_pc_plus_4_i [31:0] $end
$var wire 1 , rst_n $end
$var reg 32 C# id_instr_o [31:0] $end
$var reg 32 D# id_pc_plus_4_o [31:0] $end
$upscope $end
$scope module u_pipeline_reg_mem_wb $end
$var wire 1 ) clk $end
$var wire 32 E# mem_alu_result_i [31:0] $end
$var wire 2 F# mem_mem_to_reg_i [1:0] $end
$var wire 5 G# mem_rd_addr_i [4:0] $end
$var wire 32 H# mem_rdata_i [31:0] $end
$var wire 1 3 mem_reg_write_i $end
$var wire 1 , rst_n $end
$var parameter 2 I# NOP_MEM_TO_REG $end
$var parameter 1 J# NOP_REG_WRITE $end
$var reg 32 K# wb_alu_result_o [31:0] $end
$var reg 32 L# wb_mem_rdata_o [31:0] $end
$var reg 2 M# wb_mem_to_reg_o [1:0] $end
$var reg 5 N# wb_rd_addr_o [4:0] $end
$var reg 1 4 wb_reg_write_o $end
$upscope $end
$upscope $end
$upscope $end
$enddefinitions $end
$comment Show the parameter values. $end
$dumpall
0J#
b0 I#
07#
06#
b0 5#
04#
03#
b0 2#
0$#
0##
b0 "#
0!#
b1110011 f"
b100011 e"
b110011 d"
b110111 c"
b11 b"
b1100111 a"
b1101111 `"
b10011 _"
b1100011 ^"
b10111 ]"
b101111 \"
b100011 Q"
b110011 P"
b110111 O"
b11 N"
b1100111 M"
b1101111 L"
b10011 K"
b1100011 J"
b10111 I"
0H"
0G"
b0 F"
0E"
0D"
b0 C"
b110010 (
b10000000000 '
b100101100 &
b1010 %
$end
#0
$dumpvars
b0 N#
b0 M#
b0 L#
b0 K#
b0 H#
b0 G#
b0 F#
b0 E#
b0 D#
b10011 C#
b100 B#
b100000000000100010011 A#
b0 @#
b0 ?#
b0 >#
b0 =#
b0 <#
b0 ;#
b0 :#
b0 9#
b0 8#
b0 1#
b0 0#
b0 /#
b0 .#
b0 -#
b0 ,#
b0 +#
b0 *#
b0 )#
b0 (#
b0 '#
b0 &#
b0 %#
b0 ~"
b0 }"
b0 |"
b0 {"
b0 z"
b0 y"
bz x"
b0 w"
bz v"
b0 u"
b0 t"
b0 s"
b100 r"
b100000000000100010011 q"
b100000000000100010011 p"
b0 o"
b100000 n"
b0 m"
b0 l"
b0 k"
b0 j"
b0 i"
b0 h"
b0 g"
b0 ["
b0 Z"
b0 Y"
b0 X"
b0 W"
b10011 V"
b10011 U"
b0 T"
b0 S"
b0 R"
b10011 B"
b0 A"
b0 @"
b0 ?"
b0 >"
b0 ="
b0 <"
b10011 ;"
b0 :"
b10011 9"
b0 8"
b0 7"
b0 6"
b0 5"
b0 4"
b0 3"
b0 2"
b0 1"
b0 0"
b0 /"
b0 ."
b0 -"
b0 ,"
b0 +"
b0 *"
b0 )"
b0 ("
b0 '"
bx &"
b0 %"
b0 $"
b0 #"
b0 ""
b0 !"
b0 ~
b0 }
b0 |
b0 {
b0 z
b0 y
b0 x
b0 w
b0 v
b0 u
b0 t
b0 s
b0 r
b0 q
b0 p
b0 o
b0 n
b0 m
b0 l
b0 k
b0 j
bx i
b0 h
b0 g
b0 f
b0 e
b0 d
0c
b0 b
b0 a
0`
b0 _
b0 ^
0]
b0 \
0[
b0 Z
0Y
b0 X
b0 W
0V
b0 U
b0 T
b0 S
b0 R
1Q
b0 P
b0 O
b0 N
b0 M
1L
b0 K
b10011 J
0I
b0 H
0G
b0 F
b0 E
1D
b0 C
b0 B
b0 A
b0 @
b100000000000100010011 ?
b100 >
b0 =
b0 <
b0 ;
b0 :
b0 9
b0 8
b0 7
b0 6
b0 5
04
03
02
b0 1
b100000000000100010011 0
b0 /
b10000000000 .
b0 -
0,
b100000000000100010011 +
b0 *
0)
b0 $
b0 #
b0 "
b0 !
$end
#5000
b100000 n"
1)
#10000
0)
#15000
b100000 n"
1)
#20000
0)
#25000
b100000 n"
1)
#30000
0)
#35000
b100000 n"
1)
#40000
0)
#45000
b100000 n"
1)
#50000
0)
1,
#55000
b1 K
b1 <"
b1 T"
b1 *#
b1 g"
b1000000000000110010011 ?
b1000000000000110010011 q"
b1000000000000110010011 A#
b1000000000000110010011 +
b1000000000000110010011 0
b1000000000000110010011 p"
b100000000000 Y"
b100000000000000000000 W"
b10 ["
b10 X"
b1 Z"
b1 j"
b1 A
b1 0"
b1 /#
b1 4"
b10 E
b10 ."
b10 ,#
b10 7"
b1000 >
b1000 r"
b1000 B#
b100 !
b100 N
b100 o"
b100 s"
b100000000000100010011 J
b100000000000100010011 ;"
b100000000000100010011 V"
b100000000000100010011 C#
b100 -"
b100 1
b100 F
b100 8"
b100 1#
b100 D#
1V
1]
12
b1 -
1)
#60000
0)
#65000
0Q
b1 ^
b1 u
b1 {"
b1 v
b1 }
b1 {
b10 K
b10 <"
b10 T"
b10 *#
b10 g"
b1 w
b1 z
b10 Y"
b1000000000000000000000 W"
b100000000010 ["
b11 X"
b10 Z"
b10 j"
b10 A
b10 0"
b10 /#
b10 4"
b11 E
b11 ."
b11 ,#
b11 7"
b10011 ?
b10011 q"
b10011 A#
b10011 +
b10011 0
b10011 p"
13
b10 W
b10 h
b10 }"
b10 <#
b1 S
b1 m
b1 ("
b1 ?#
b1 \
b1 l
b1 9#
b100 X
b100 ;#
b1000000000000110010011 J
b1000000000000110010011 ;"
b1000000000000110010011 V"
b1000000000000110010011 C#
b1000 -"
b1000 1
b1000 F
b1000 8"
b1000 1#
b1000 D#
b1100 >
b1100 r"
b1100 B#
b1000 !
b1000 N
b1000 o"
b1000 s"
b10 -
1)
#70000
0)
#75000
b10 ^
b10 u
b10 {"
b0 K
b0 <"
b0 T"
b0 *#
b0 g"
b10 v
b10 }
b10 {
b1 o
b1 !"
b0 Y"
b0 W"
b0 ["
b0 X"
b0 Z"
b0 j"
b0 A
b0 0"
b0 /#
b0 4"
b0 E
b0 ."
b0 ,#
b0 7"
b10 w
b10 z
b1 O
b1 q
b1 ,"
b10000 >
b10000 r"
b10000 B#
b1100 !
b1100 N
b1100 o"
b1100 s"
b10011 J
b10011 ;"
b10011 V"
b10011 C#
b1100 -"
b1100 1
b1100 F
b1100 8"
b1100 1#
b1100 D#
b11 W
b11 h
b11 }"
b11 <#
b10 S
b10 m
b10 ("
b10 ?#
b10 \
b10 l
b10 9#
b1000 X
b1000 ;#
02
b10 5
b10 s
b10 *"
b10 '#
b10 G#
b1 $
b1 d
b1 t"
b1 <
b1 t
b1 z"
b1 %#
b1 E#
14
b11 -
1)
#80000
0)
#85000
1Q
b0 ^
b0 u
b0 {"
b1 ;
b1 1"
b1 h"
b0 v
b0 }
b0 {
b0 o
b0 !"
b0 O
b0 q
b0 ,"
b0 w
b0 z
b10 6
b10 j
b10 '"
b10 2"
b10 m"
b10 N#
b1 =
b1 k
b1 K#
b11 5
b11 s
b11 *"
b11 '#
b11 G#
b10 $
b10 d
b10 t"
b10 <
b10 t
b10 z"
b10 %#
b10 E#
b0 W
b0 h
b0 }"
b0 <#
b0 S
b0 m
b0 ("
b0 ?#
b0 \
b0 l
b0 9#
b1100 X
b1100 ;#
b10000 -"
b10000 1
b10000 F
b10000 8"
b10000 1#
b10000 D#
b10100 >
b10100 r"
b10100 B#
b10000 !
b10000 N
b10000 o"
b10000 s"
b100 -
1)
#90000
0)
#95000
b10 ;
b10 1"
b10 h"
b1100010000001000110011 ?
b1100010000001000110011 q"
b1100010000001000110011 A#
b1100010000001000110011 +
b1100010000001000110011 0
b1100010000001000110011 p"
b11000 >
b11000 r"
b11000 B#
b10100 !
b10100 N
b10100 o"
b10100 s"
b10100 -"
b10100 1
b10100 F
b10100 8"
b10100 1#
b10100 D#
b10000 X
b10000 ;#
12
b0 5
b0 s
b0 *"
b0 '#
b0 G#
b0 $
b0 d
b0 t"
b0 <
b0 t
b0 z"
b0 %#
b0 E#
b11 6
b11 j
b11 '"
b11 2"
b11 m"
b11 N#
b10 =
b10 k
b10 K#
b101 -
1)
#100000
0)
#105000
b0 ;
b0 1"
b0 h"
b10 @
b10 3"
b10 k"
b10 0#
b1 B
b1 5"
b1 l"
b1 .#
1D
0L
b10000100000000010 Y"
b1100010000000000000000 W"
b100 ["
b100 X"
b11 Z"
b110011 U"
b11 j"
b10 i"
b11 A
b11 0"
b11 /#
b11 4"
b10 C
b10 /"
b10 -#
b10 6"
b100 E
b100 ."
b100 ,#
b100 7"
b110011 9"
b110011 B"
b101000000000001010010011 ?
b101000000000001010010011 q"
b101000000000001010010011 A#
b101000000000001010010011 +
b101000000000001010010011 0
b101000000000001010010011 p"
b0 6
b0 j
b0 '"
b0 2"
b0 m"
b0 N#
b0 =
b0 k
b0 K#
b10100 X
b10100 ;#
b1100010000001000110011 J
b1100010000001000110011 ;"
b1100010000001000110011 V"
b1100010000001000110011 C#
b11000 -"
b11000 1
b11000 F
b11000 8"
b11000 1#
b11000 D#
b11100 >
b11100 r"
b11100 B#
b11000 !
b11000 N
b11000 o"
b11000 s"
b110 -
1)
#110000
0)
#115000
b10 {
0Q
b11 ^
b11 u
b11 {"
b10 w
b10 z
b11 v
b11 }
b1010 K
b1010 <"
b1010 T"
b1010 *#
b1010 g"
b0 @
b0 3"
b0 k"
b0 0#
b0 B
b0 5"
b0 l"
b0 .#
1L
1D
b10 $"
b10 #"
b10 ""
b10 o
b10 !"
b1 e
b1 y
b1 p
b1 ~
b1010000000000001100010011 ?
b1010000000000001100010011 q"
b1010000000000001100010011 A#
b1010000000000001100010011 +
b1010000000000001100010011 0
b1010000000000001100010011 p"
b1010 Y"
b101000000000000000000000 W"
b100000000100 ["
b101 X"
b1010 Z"
b10011 U"
b1010 j"
b0 i"
b1010 A
b1010 0"
b1010 /#
b1010 4"
b0 C
b0 /"
b0 -#
b0 6"
b101 E
b101 ."
b101 ,#
b101 7"
b10011 9"
b10011 B"
b100000 >
b100000 r"
b100000 B#
b11100 !
b11100 N
b11100 o"
b11100 s"
b101000000000001010010011 J
b101000000000001010010011 ;"
b101000000000001010010011 V"
b101000000000001010010011 C#
b11100 -"
b11100 1
b11100 F
b11100 8"
b11100 1#
b11100 D#
0]
b100 W
b100 h
b100 }"
b100 <#
b11 S
b11 m
b11 ("
b11 ?#
b10 U
b10 n
b10 )"
b10 =#
b10 R
b10 f
b10 |"
b10 @#
b1 T
b1 g
b1 >#
b11000 X
b11000 ;#
b111 -
1)
#120000
0)
#125000
b1010 ^
b1010 u
b1010 {"
b1010 v
b1010 }
b1010 {
b0 o
b0 !"
b0 $"
b0 #"
b0 ""
b0 e
b0 y
b0 p
b0 ~
b10100 K
b10100 <"
b10100 T"
b10100 *#
b10100 g"
b1010 w
b1010 z
b10100 Y"
b1010000000000000000000000 W"
b110 ["
b110 X"
b10100 Z"
b10100 j"
b10100 A
b10100 0"
b10100 /#
b10100 4"
b110 E
b110 ."
b110 ,#
b110 7"
b10011 ?
b10011 q"
b10011 A#
b10011 +
b10011 0
b10011 p"
02
b100 5
b100 s
b100 *"
b100 '#
b100 G#
b10 #
b10 b
b10 (#
b11 $
b11 d
b11 t"
b11 <
b11 t
b11 z"
b11 %#
b11 E#
1]
b101 W
b101 h
b101 }"
b101 <#
b1010 S
b1010 m
b1010 ("
b1010 ?#
b0 U
b0 n
b0 )"
b0 =#
b1010 \
b1010 l
b1010 9#
b0 R
b0 f
b0 |"
b0 @#
b0 T
b0 g
b0 >#
b11100 X
b11100 ;#
b1010000000000001100010011 J
b1010000000000001100010011 ;"
b1010000000000001100010011 V"
b1010000000000001100010011 C#
b100000 -"
b100000 1
b100000 F
b100000 8"
b100000 1#
b100000 D#
b100100 >
b100100 r"
b100100 B#
b100000 !
b100000 N
b100000 o"
b100000 s"
b1000 -
1)
#130000
0)
#135000
b10100 ^
b10100 u
b10100 {"
b0 K
b0 <"
b0 T"
b0 *#
b0 g"
b10100 v
b10100 }
b10100 {
b11 ;
b11 1"
b11 h"
b0 Y"
b0 W"
b0 ["
b0 X"
b0 Z"
b0 j"
b0 A
b0 0"
b0 /#
b0 4"
b0 E
b0 ."
b0 ,#
b0 7"
b10100 w
b10100 z
b101000 >
b101000 r"
b101000 B#
b100100 !
b100100 N
b100100 o"
b100100 s"
b10011 J
b10011 ;"
b10011 V"
b10011 C#
b100100 -"
b100100 1
b100100 F
b100100 8"
b100100 1#
b100100 D#
b110 W
b110 h
b110 }"
b110 <#
b10100 S
b10100 m
b10100 ("
b10100 ?#
b10100 \
b10100 l
b10100 9#
b100000 X
b100000 ;#
b101 5
b101 s
b101 *"
b101 '#
b101 G#
b0 #
b0 b
b0 (#
b1010 $
b1010 d
b1010 t"
b1010 <
b1010 t
b1010 z"
b1010 %#
b1010 E#
b100 6
b100 j
b100 '"
b100 2"
b100 m"
b100 N#
b11 =
b11 k
b11 K#
b1001 -
1)
#140000
0)
#145000
1Q
b0 ^
b0 u
b0 {"
b1010 ;
b1010 1"
b1010 h"
b0 v
b0 }
b0 {
b0 w
b0 z
b101 6
b101 j
b101 '"
b101 2"
b101 m"
b101 N#
b1010 =
b1010 k
b1010 K#
b110 5
b110 s
b110 *"
b110 '#
b110 G#
b10100 $
b10100 d
b10100 t"
b10100 <
b10100 t
b10100 z"
b10100 %#
b10100 E#
b0 W
b0 h
b0 }"
b0 <#
b0 S
b0 m
b0 ("
b0 ?#
b0 \
b0 l
b0 9#
b100100 X
b100100 ;#
b101000 -"
b101000 1
b101000 F
b101000 8"
b101000 1#
b101000 D#
b101100 >
b101100 r"
b101100 B#
b101000 !
b101000 N
b101000 o"
b101000 s"
b1010 -
1)
#150000
0)
#155000
b10100 ;
b10100 1"
b10100 h"
b11000101000001110110011 ?
b11000101000001110110011 q"
b11000101000001110110011 A#
b11000101000001110110011 +
b11000101000001110110011 0
b11000101000001110110011 p"
b110000 >
b110000 r"
b110000 B#
b101100 !
b101100 N
b101100 o"
b101100 s"
b101100 -"
b101100 1
b101100 F
b101100 8"
b101100 1#
b101100 D#
b101000 X
b101000 ;#
12
b0 5
b0 s
b0 *"
b0 '#
b0 G#
b0 $
b0 d
b0 t"
b0 <
b0 t
b0 z"
b0 %#
b0 E#
b110 6
b110 j
b110 '"
b110 2"
b110 m"
b110 N#
b10100 =
b10100 k
b10100 K#
b1011 -
1)
#160000
0)
#165000
b0 ;
b0 1"
b0 h"
b10100 @
b10100 3"
b10100 k"
b10100 0#
b1010 B
b1010 5"
b1010 l"
b1010 .#
1D
0L
b101000000000000110 Y"
b11000101000000000000000 W"
b100000000110 ["
b111 X"
b110 Z"
b110011 U"
b110 j"
b101 i"
b110 A
b110 0"
b110 /#
b110 4"
b101 C
b101 /"
b101 -#
b101 6"
b111 E
b111 ."
b111 ,#
b111 7"
b110011 9"
b110011 B"
b10100000000010000010011 ?
b10100000000010000010011 q"
b10100000000010000010011 A#
b10100000000010000010011 +
b10100000000010000010011 0
b10100000000010000010011 p"
b0 6
b0 j
b0 '"
b0 2"
b0 m"
b0 N#
b0 =
b0 k
b0 K#
b101100 X
b101100 ;#
b11000101000001110110011 J
b11000101000001110110011 ;"
b11000101000001110110011 V"
b11000101000001110110011 C#
b110000 -"
b110000 1
b110000 F
b110000 8"
b110000 1#
b110000 D#
b110100 >
b110100 r"
b110100 B#
b110000 !
b110000 N
b110000 o"
b110000 s"
b1100 -
1)
#170000
0)
