tb_cpu.vcd
$date
	Sat May 17 10:34:54 2025
$end
$version
	Icarus Verilog
$end
$timescale
	1ps
$end
$scope module tb_cpu $end
$var wire 32 ! i_mem_addr [31:0] $end
$var wire 4 " d_mem_wen [3:0] $end
$var wire 32 # d_mem_wdata [31:0] $end
$var wire 32 $ d_mem_addr [31:0] $end
$var parameter 32 % CLK_PERIOD $end
$var parameter 32 & MAX_SIM_CYCLES $end
$var parameter 32 ' MEM_SIZE_WORDS $end
$var parameter 64 ( RESET_DURATION $end
$var reg 1 ) clk $end
$var reg 32 * d_mem_rdata [31:0] $end
$var reg 32 + i_mem_rdata [31:0] $end
$var reg 1 , rst_n $end
$var integer 32 - cycle_count_sim [31:0] $end
$var integer 32 . j [31:0] $end
$scope module u_cpu $end
$var wire 1 ) clk $end
$var wire 32 / d_mem_rdata [31:0] $end
$var wire 32 0 i_mem_rdata [31:0] $end
$var wire 32 1 id_ex_pc_plus_4_for_jalr_jal [31:0] $end
$var wire 1 , rst_n $end
$var wire 1 2 mem_zero_flag $end
$var wire 1 3 mem_wb_reg_write_ctrl_from_exmem $end
$var wire 1 4 mem_wb_reg_write $end
$var wire 5 5 mem_wb_rd_addr_from_exmem [4:0] $end
$var wire 5 6 mem_wb_rd_addr [4:0] $end
$var wire 2 7 mem_wb_mem_to_reg_ctrl_from_exmem [1:0] $end
$var wire 2 8 mem_wb_mem_to_reg [1:0] $end
$var wire 32 9 mem_wb_mem_rdata_from_mem [31:0] $end
$var wire 32 : mem_wb_mem_rdata [31:0] $end
$var wire 32 ; mem_wb_data [31:0] $end
$var wire 32 < mem_wb_alu_result_from_exmem [31:0] $end
$var wire 32 = mem_wb_alu_result [31:0] $end
$var wire 32 > if_id_pc_plus_4 [31:0] $end
$var wire 32 ? if_id_instr [31:0] $end
$var wire 32 @ id_ex_rs2_data [31:0] $end
$var wire 5 A id_ex_rs2_addr [4:0] $end
$var wire 32 B id_ex_rs1_data [31:0] $end
$var wire 5 C id_ex_rs1_addr [4:0] $end
$var wire 1 D id_ex_reg_write $end
$var wire 5 E id_ex_rd_addr [4:0] $end
$var wire 32 F id_ex_pc_plus_4 [31:0] $end
$var wire 1 G id_ex_mem_write $end
$var wire 2 H id_ex_mem_to_reg [1:0] $end
$var wire 1 I id_ex_mem_read $end
$var wire 32 J id_ex_instr [31:0] $end
$var wire 32 K id_ex_imm_ext [31:0] $end
$var wire 1 L id_ex_alu_src $end
$var wire 4 M id_ex_alu_op [3:0] $end
$var wire 32 N i_mem_addr [31:0] $end
$var wire 1 O ex_zero_flag $end
$var wire 32 P ex_mem_rs2_data_for_alu [31:0] $end
$var wire 5 Q ex_mem_rs2_addr [4:0] $end
$var wire 32 R ex_mem_rs1_data [31:0] $end
$var wire 5 S ex_mem_rs1_addr [4:0] $end
$var wire 1 T ex_mem_reg_write_ctrl $end
$var wire 5 U ex_mem_rd_addr_for_ex [4:0] $end
$var wire 32 V ex_mem_pc_plus_4 [31:0] $end
$var wire 1 W ex_mem_mem_write_ctrl $end
$var wire 2 X ex_mem_mem_to_reg_ctrl [1:0] $end
$var wire 1 Y ex_mem_mem_read_ctrl $end
$var wire 32 Z ex_mem_imm_ext [31:0] $end
$var wire 1 [ ex_mem_alu_src $end
$var wire 32 \ ex_mem_alu_result_pre_fwd [31:0] $end
$var wire 4 ] ex_mem_alu_op [3:0] $end
$var wire 1 ^ d_mem_write_ctrl $end
$var wire 4 _ d_mem_wen [3:0] $end
$var wire 32 ` d_mem_wdata [31:0] $end
$var wire 1 a d_mem_read_ctrl $end
$var wire 32 b d_mem_addr [31:0] $end
$scope module u_ex_stage $end
$var wire 32 c alu_operand_a [31:0] $end
$var wire 1 ) clk $end
$var wire 1 , rst_n $end
$var wire 1 O zero_flag_o $end
$var wire 32 d rs2_data_i [31:0] $end
$var wire 32 e rs1_data_i [31:0] $end
$var wire 5 f rd_addr_i [4:0] $end
$var wire 32 g mul_result_internal [31:0] $end
$var wire 32 h mul_operand_b [31:0] $end
$var wire 32 i mul_operand_a [31:0] $end
$var wire 1 4 mem_wb_reg_write_i $end
$var wire 5 j mem_wb_rd_addr_i [4:0] $end
$var wire 32 k mem_wb_alu_result_i [31:0] $end
$var wire 32 l imm_ext_i [31:0] $end
$var wire 5 m id_ex_rs2_addr_i [4:0] $end
$var wire 5 n id_ex_rs1_addr_i [4:0] $end
$var wire 1 3 ex_mem_reg_write_i $end
$var wire 5 o ex_mem_rd_addr_i [4:0] $end
$var wire 32 p ex_mem_alu_result_i [31:0] $end
$var wire 1 [ alu_src_i $end
$var wire 32 q alu_result_o [31:0] $end
$var wire 32 r alu_result_internal [31:0] $end
$var wire 32 s alu_operand_b [31:0] $end
$var wire 4 t alu_op_i [3:0] $end
$var wire 32 u actual_rs2_data [31:0] $end
$var wire 32 v actual_rs1_data [31:0] $end
$scope module u_alu $end
$var wire 32 w operand_a_i [31:0] $end
$var wire 32 x operand_b_i [31:0] $end
$var wire 5 y shift_amount [4:0] $end
$var wire 4 z alu_op_i [3:0] $end
$var reg 32 { result_o [31:0] $end
$var reg 1 O zero_flag_o $end
$upscope $end
$scope module u_multiplier $end
$var wire 1 ) clk $end
$var wire 32 | operand_a_i [31:0] $end
$var wire 32 } operand_b_i [31:0] $end
$var wire 1 , rst_n $end
$var wire 64 ~ product_unsigned_unsigned [63:0] $end
$var wire 64 !" product_signed_unsigned [63:0] $end
$var wire 64 "" product_signed_signed [63:0] $end
$var wire 4 #" mul_op_i [3:0] $end
$var reg 32 $" result_o [31:0] $end
$upscope $end
$upscope $end
$scope module u_id_stage $end
$var wire 1 ) clk $end
$var wire 32 %" id_pc_plus_4_o [31:0] $end
$var wire 5 &" rd_addr_o [4:0] $end
$var wire 5 '" rs1_addr_o [4:0] $end
$var wire 5 (" rs2_addr_o [4:0] $end
$var wire 1 , rst_n $end
$var wire 32 )" wb_data_i [31:0] $end
$var wire 1 4 wb_reg_write_i $end
$var wire 5 *" wb_rd_addr_i [4:0] $end
$var wire 32 +" rs2_data_o [31:0] $end
$var wire 5 ," rs2 [4:0] $end
$var wire 32 -" rs1_data_o [31:0] $end
$var wire 5 ." rs1 [4:0] $end
$var wire 1 D reg_write_o $end
$var wire 5 /" rd [4:0] $end
$var wire 32 0" pc_plus_4_i [31:0] $end
$var wire 7 1" opcode [6:0] $end
$var wire 1 G mem_write_o $end
$var wire 2 2" mem_to_reg_o [1:0] $end
$var wire 1 I mem_read_o $end
$var wire 32 3" instr_i [31:0] $end
$var wire 32 4" imm_ext_o [31:0] $end
$var wire 7 5" funct7 [6:0] $end
$var wire 3 6" funct3 [2:0] $end
$var wire 1 L alu_src_o $end
$var wire 4 7" alu_op_o [3:0] $end
$scope module u_control_unit $end
$var wire 3 8" funct3 [2:0] $end
$var wire 7 9" funct7 [6:0] $end
$var wire 7 :" opcode [6:0] $end
$var parameter 4 ;" DEFAULT_ALU_OP $end
$var parameter 1 <" DEFAULT_ALU_SRC $end
$var parameter 1 =" DEFAULT_MEM_READ $end
$var parameter 2 >" DEFAULT_MEM_TO_REG $end
$var parameter 1 ?" DEFAULT_MEM_WRITE $end
$var parameter 1 @" DEFAULT_REG_WRITE $end
$var parameter 7 A" OPCODE_AUIPC $end
$var parameter 7 B" OPCODE_BRANCH $end
$var parameter 7 C" OPCODE_IMM $end
$var parameter 7 D" OPCODE_JAL $end
$var parameter 7 E" OPCODE_JALR $end
$var parameter 7 F" OPCODE_LOAD $end
$var parameter 7 G" OPCODE_LUI $end
$var parameter 7 H" OPCODE_OP $end
$var parameter 7 I" OPCODE_STORE $end
$var reg 4 J" alu_op_o [3:0] $end
$var reg 1 L alu_src_o $end
$var reg 1 I mem_read_o $end
$var reg 2 K" mem_to_reg_o [1:0] $end
$var reg 1 G mem_write_o $end
$var reg 1 D reg_write_o $end
$upscope $end
$scope module u_imm_gen $end
$var wire 32 L" imm_ext_o [31:0] $end
$var wire 7 M" opcode [6:0] $end
$var wire 32 N" instr [31:0] $end
$var wire 32 O" imm_u_type [31:0] $end
$var wire 32 P" imm_s_type [31:0] $end
$var wire 32 Q" imm_j_type [31:0] $end
$var wire 32 R" imm_i_type [31:0] $end
$var wire 32 S" imm_b_type [31:0] $end
$var parameter 7 T" OPCODE_AMO $end
$var parameter 7 U" OPCODE_AUIPC $end
$var parameter 7 V" OPCODE_BRANCH $end
$var parameter 7 W" OPCODE_IMM $end
$var parameter 7 X" OPCODE_JAL $end
$var parameter 7 Y" OPCODE_JALR $end
$var parameter 7 Z" OPCODE_LOAD $end
$var parameter 7 [" OPCODE_LUI $end
$var parameter 7 \" OPCODE_OP $end
$var parameter 7 ]" OPCODE_STORE $end
$var parameter 7 ^" OPCODE_SYSTEM $end
$var reg 32 _" selected_imm [31:0] $end
$upscope $end
$scope module u_reg_file $end
$var wire 1 ) clk $end
$var wire 32 `" rd_data [31:0] $end
$var wire 5 a" rs1_addr [4:0] $end
$var wire 5 b" rs2_addr [4:0] $end
$var wire 1 , rst_n $end
$var wire 1 4 wen $end
$var wire 32 c" rs2_data [31:0] $end
$var wire 32 d" rs1_data [31:0] $end
$var wire 5 e" rd_addr [4:0] $end
$var integer 32 f" i [31:0] $end
$upscope $end
$upscope $end
$scope module u_if_stage $end
$var wire 1 ) clk $end
$var wire 32 g" i_mem_addr [31:0] $end
$var wire 32 h" i_mem_rdata [31:0] $end
$var wire 32 i" if_id_instr_o [31:0] $end
$var wire 1 , rst_n $end
$var wire 32 j" if_id_pc_plus_4_o [31:0] $end
$var reg 32 k" pc_reg [31:0] $end
$upscope $end
$scope module u_mem_stage $end
$var wire 1 ) clk $end
$var wire 32 l" d_mem_addr_o [31:0] $end
$var wire 32 m" d_mem_rdata_i [31:0] $end
$var wire 32 n" d_mem_wdata_o [31:0] $end
$var wire 32 o" mem_rdata_o [31:0] $end
$var wire 32 p" rs2_data_i [31:0] $end
$var wire 1 , rst_n $end
$var wire 1 ^ mem_write_i $end
$var wire 1 a mem_read_i $end
$var wire 4 q" d_mem_wen_o [3:0] $end
$var wire 32 r" alu_result_i [31:0] $end
$upscope $end
$scope module u_pipeline_reg_ex_mem $end
$var wire 1 ) clk $end
$var wire 32 s" ex_alu_result_i [31:0] $end
$var wire 1 O ex_zero_flag_i $end
$var wire 1 , rst_n $end
$var wire 32 t" ex_rs2_data_i [31:0] $end
$var wire 1 T ex_reg_write_i $end
$var wire 5 u" ex_rd_addr_i [4:0] $end
$var wire 1 W ex_mem_write_i $end
$var wire 2 v" ex_mem_to_reg_i [1:0] $end
$var wire 1 Y ex_mem_read_i $end
$var parameter 1 w" NOP_MEM_READ $end
$var parameter 2 x" NOP_MEM_TO_REG $end
$var parameter 1 y" NOP_MEM_WRITE $end
$var parameter 1 z" NOP_REG_WRITE $end
$var reg 32 {" mem_alu_result_o [31:0] $end
$var reg 1 a mem_mem_read_o $end
$var reg 2 |" mem_mem_to_reg_o [1:0] $end
$var reg 1 ^ mem_mem_write_o $end
$var reg 5 }" mem_rd_addr_o [4:0] $end
$var reg 1 3 mem_reg_write_o $end
$var reg 32 ~" mem_rs2_data_o [31:0] $end
$var reg 1 2 mem_zero_flag_o $end
$upscope $end
$scope module u_pipeline_reg_id_ex $end
$var wire 1 ) clk $end
$var wire 4 !# id_alu_op_i [3:0] $end
$var wire 1 L id_alu_src_i $end
$var wire 32 "# id_imm_ext_i [31:0] $end
$var wire 1 I id_mem_read_i $end
$var wire 2 ## id_mem_to_reg_i [1:0] $end
$var wire 1 G id_mem_write_i $end
$var wire 5 $# id_rd_addr_i [4:0] $end
$var wire 1 D id_reg_write_i $end
$var wire 5 %# id_rs1_addr_i [4:0] $end
$var wire 32 &# id_rs1_data_i [31:0] $end
$var wire 5 '# id_rs2_addr_i [4:0] $end
$var wire 32 (# id_rs2_data_i [31:0] $end
$var wire 1 , rst_n $end
$var wire 32 )# id_pc_plus_4_i [31:0] $end
$var parameter 4 *# NOP_ALU_OP $end
$var parameter 1 +# NOP_ALU_SRC $end
$var parameter 1 ,# NOP_MEM_READ $end
$var parameter 2 -# NOP_MEM_TO_REG $end
$var parameter 1 .# NOP_MEM_WRITE $end
$var parameter 1 /# NOP_REG_WRITE $end
$var reg 4 0# ex_alu_op_o [3:0] $end
$var reg 1 [ ex_alu_src_o $end
$var reg 32 1# ex_imm_ext_o [31:0] $end
$var reg 1 Y ex_mem_read_o $end
$var reg 2 2# ex_mem_to_reg_o [1:0] $end
$var reg 1 W ex_mem_write_o $end
$var reg 32 3# ex_pc_plus_4_o [31:0] $end
$var reg 5 4# ex_rd_addr_o [4:0] $end
$var reg 1 T ex_reg_write_o $end
$var reg 5 5# ex_rs1_addr_o [4:0] $end
$var reg 32 6# ex_rs1_data_o [31:0] $end
$var reg 5 7# ex_rs2_addr_o [4:0] $end
$var reg 32 8# ex_rs2_data_o [31:0] $end
$upscope $end
$scope module u_pipeline_reg_if_id $end
$var wire 1 ) clk $end
$var wire 32 9# if_instr_i [31:0] $end
$var wire 32 :# if_pc_plus_4_i [31:0] $end
$var wire 1 , rst_n $end
$var reg 32 ;# id_instr_o [31:0] $end
$var reg 32 <# id_pc_plus_4_o [31:0] $end
$upscope $end
$scope module u_pipeline_reg_mem_wb $end
$var wire 1 ) clk $end
$var wire 32 =# mem_alu_result_i [31:0] $end
$var wire 2 ># mem_mem_to_reg_i [1:0] $end
$var wire 5 ?# mem_rd_addr_i [4:0] $end
$var wire 32 @# mem_rdata_i [31:0] $end
$var wire 1 3 mem_reg_write_i $end
$var wire 1 , rst_n $end
$var parameter 2 A# NOP_MEM_TO_REG $end
$var parameter 1 B# NOP_REG_WRITE $end
$var reg 32 C# wb_alu_result_o [31:0] $end
$var reg 32 D# wb_mem_rdata_o [31:0] $end
$var reg 2 E# wb_mem_to_reg_o [1:0] $end
$var reg 5 F# wb_rd_addr_o [4:0] $end
$var reg 1 4 wb_reg_write_o $end
$upscope $end
$upscope $end
$upscope $end
$enddefinitions $end
$comment Show the parameter values. $end
$dumpall
0B#
b0 A#
0/#
0.#
b0 -#
0,#
0+#
b0 *#
0z"
0y"
b0 x"
0w"
b1110011 ^"
b100011 ]"
b110011 \"
b110111 ["
b11 Z"
b1100111 Y"
b1101111 X"
b10011 W"
b1100011 V"
b10111 U"
b101111 T"
b100011 I"
b110011 H"
b110111 G"
b11 F"
b1100111 E"
b1101111 D"
b10011 C"
b1100011 B"
b10111 A"
0@"
0?"
b0 >"
0="
0<"
b0 ;"
b110010 (
b10000000000 '
b1111101000 &
b1010 %
$end
#0
$dumpvars
b0 F#
b0 E#
b0 D#
b0 C#
b0 @#
b0 ?#
b0 >#
b0 =#
b0 <#
b10011 ;#
b100 :#
b11100000000001010010011 9#
b0 8#
b0 7#
b0 6#
b0 5#
b0 4#
b0 3#
b0 2#
b0 1#
b0 0#
b0 )#
b0 (#
b0 '#
b0 &#
b0 %#
b0 $#
b0 ##
b0 "#
b0 !#
b0 ~"
b0 }"
b0 |"
b0 {"
b0 v"
b0 u"
b0 t"
b0 s"
b0 r"
b0 q"
bz p"
b0 o"
bz n"
b0 m"
b0 l"
b0 k"
b100 j"
b11100000000001010010011 i"
b11100000000001010010011 h"
b0 g"
b100000 f"
b0 e"
b0 d"
b0 c"
b0 b"
b0 a"
b0 `"
b0 _"
b0 S"
b0 R"
b0 Q"
b0 P"
b0 O"
b10011 N"
b10011 M"
b0 L"
b0 K"
b0 J"
b10011 :"
b0 9"
b0 8"
b0 7"
b0 6"
b0 5"
b0 4"
b10011 3"
b0 2"
b10011 1"
b0 0"
b0 /"
b0 ."
b0 -"
b0 ,"
b0 +"
b0 *"
b0 )"
b0 ("
b0 '"
b0 &"
b0 %"
bx $"
b0 #"
b0 ""
b0 !"
b0 ~
b0 }
b0 |
b0 {
b0 z
b0 y
b0 x
b0 w
b0 v
b0 u
b0 t
b0 s
b0 r
b0 q
b0 p
b0 o
b0 n
b0 m
b0 l
b0 k
b0 j
b0 i
b0 h
bx g
b0 f
b0 e
b0 d
b0 c
b0 b
0a
b0 `
b0 _
0^
b0 ]
b0 \
0[
b0 Z
0Y
b0 X
0W
b0 V
b0 U
0T
b0 S
b0 R
b0 Q
b0 P
1O
b0 N
b0 M
1L
b0 K
b10011 J
0I
b0 H
0G
b0 F
b0 E
1D
b0 C
b0 B
b0 A
b0 @
b11100000000001010010011 ?
b100 >
b0 =
b0 <
b0 ;
b0 :
b0 9
b0 8
b0 7
b0 6
b0 5
04
03
02
b0 1
b11100000000001010010011 0
b0 /
b10000000000 .
b0 -
0,
b11100000000001010010011 +
b0 *
0)
b0 $
b0 #
b0 "
b0 !
$end
#5000
b100000 f"
1)
#10000
0)
#15000
b100000 f"
1)
#20000
0)
#25000
b100000 f"
1)
#30000
0)
#35000
b100000 f"
1)
#40000
0)
#45000
b100000 f"
1)
#50000
0)
1,
#55000
b111 K
b111 4"
b111 L"
b111 "#
b111 _"
b11000000000001100010011 ?
b11000000000001100010011 i"
b11000000000001100010011 9#
b11000000000001100010011 +
b11000000000001100010011 0
b11000000000001100010011 h"
b100000000110 Q"
b11100000000000000000000 O"
b100000000100 S"
b101 P"
b111 R"
b111 b"
b111 A
b111 ("
b111 '#
b111 ,"
b101 E
b101 &"
b101 $#
b101 /"
b1000 >
b1000 j"
b1000 :#
b100 !
b100 N
b100 g"
b100 k"
b11100000000001010010011 J
b11100000000001010010011 3"
b11100000000001010010011 N"
b11100000000001010010011 ;#
b100 %"
b100 1
b100 F
b100 0"
b100 )#
b100 <#
1T
1[
12
b1 -
1)
#60000
0)
#65000
0O
b111 \
b111 q
b111 s"
b111 r
b111 {
b111 y
b110 K
b110 4"
b110 L"
b110 "#
b110 _"
b111 s
b111 x
b110 Q"
b11000000000000000000000 O"
b110 S"
b110 P"
b110 R"
b110 b"
b110 A
b110 ("
b110 '#
b110 ,"
b110 E
b110 &"
b110 $#
b110 /"
b10011000101000001110110011 ?
b10011000101000001110110011 i"
b10011000101000001110110011 9#
b10011000101000001110110011 +
b10011000101000001110110011 0
b10011000101000001110110011 h"
13
b101 U
b101 f
b101 u"
b101 4#
b111 Q
b111 m
b111 7#
b111 Z
b111 l
b111 1#
b100 V
b100 3#
b11000000000001100010011 J
b11000000000001100010011 3"
b11000000000001100010011 N"
b11000000000001100010011 ;#
b1000 %"
b1000 1
b1000 F
b1000 0"
b1000 )#
b1000 <#
b1100 >
b1100 j"
b1100 :#
b1000 !
b1000 N
b1000 g"
b1000 k"
b10 -
1)
#70000
0)
#75000
b110 \
b110 q
b110 s"
b0 K
b0 4"
b0 L"
b0 "#
b0 _"
b1010 M
b1010 7"
b1010 J"
b1010 !#
1D
0L
b110 r
b110 {
b110 y
b11111111110100000000010000010011 ?
b11111111110100000000010000010011 i"
b11111111110100000000010000010011 9#
b11111111110100000000010000010011 +
b11111111110100000000010000010011 0
b11111111110100000000010000010011 h"
b101000000000100110 Q"
b10011000101000000000000000 O"
b100000100110 S"
b100111 P"
b100110 R"
b110011 M"
b101 a"
b1 5"
b1 9"
b101 C
b101 '"
b101 %#
b101 ."
b111 E
b111 &"
b111 $#
b111 /"
b110011 1"
b110011 :"
b110 s
b110 x
b10000 >
b10000 j"
b10000 :#
b1100 !
b1100 N
b1100 g"
b1100 k"
b10011000101000001110110011 J
b10011000101000001110110011 3"
b10011000101000001110110011 N"
b10011000101000001110110011 ;#
b1100 %"
b1100 1
b1100 F
b1100 0"
b1100 )#
b1100 <#
b110 U
b110 f
b110 u"
b110 4#
b110 Q
b110 m
b110 7#
b110 Z
b110 l
b110 1#
b1000 V
b1000 3#
02
b101 5
b101 o
b101 }"
b101 ?#
b111 $
b111 b
b111 l"
b111 <
b111 p
b111 r"
b111 {"
b111 =#
14
b11 -
1)
#80000
0)
#85000
b111 c
b111 w
b111 v
b111 ;
b111 )"
b111 `"
b110 u
b110 y
b11111111111111111111111111111101 K
b11111111111111111111111111111101 4"
b11111111111111111111111111111101 L"
b11111111111111111111111111111101 "#
b11111111111111111111111111111101 _"
1L
1D
b0 M
b0 7"
b0 J"
b0 !#
b101010 \
b101010 q
b101010 s"
bx r
bx {
b101010 g
b101010 $"
b101010 ""
b101010 !"
b101010 ~
b110 h
b110 }
b111 i
b111 |
b110 s
b110 x
b11111111111100000000111111111100 Q"
b11111111110100000000000000000000 O"
b11111111111111111111011111101000 S"
b11111111111111111111111111101000 P"
b11111111111111111111111111111101 R"
b10011 M"
b11101 b"
b0 a"
b1111111 5"
b1111111 9"
b11101 A
b11101 ("
b11101 '#
b11101 ,"
b0 C
b0 '"
b0 %#
b0 ."
b1000 E
b1000 &"
b1000 $#
b1000 /"
b10011 1"
b10011 :"
b10100000000010010010011 ?
b10100000000010010010011 i"
b10100000000010010010011 9#
b10100000000010010010011 +
b10100000000010010010011 0
b10100000000010010010011 h"
b101 6
b101 j
b101 *"
b101 e"
b101 F#
b111 =
b111 k
b111 C#
b110 5
b110 o
b110 }"
b110 ?#
b110 $
b110 b
b110 l"
b110 <
b110 p
b110 r"
b110 {"
b110 =#
b1010 ]
b1010 t
b1010 z
b1010 #"
b1010 0#
0[
b111 U
b111 f
b111 u"
b111 4#
b101 S
b101 n
b101 5#
b0 Z
b0 l
b0 1#
b1100 V
b1100 3#
b11111111110100000000010000010011 J
b11111111110100000000010000010011 3"
b11111111110100000000010000010011 N"
b11111111110100000000010000010011 ;#
b10000 %"
b10000 1
b10000 F
b10000 0"
b10000 )#
b10000 <#
b10100 >
b10100 j"
b10100 :#
b10000 !
b10000 N
b10000 g"
b10000 k"
b100 -
1)
#90000
0)
#95000
b0 i
b0 |
b0 ""
b0 !"
b0 ~
b0 h
b0 }
b101 K
b101 4"
b101 L"
b101 "#
b101 _"
b111 @
b111 +"
b111 c"
b111 (#
1D
1L
b11101 y
b0 c
b0 w
b0 v
b110 ;
b110 )"
b110 `"
b10100101000000010100110011 ?
b10100101000000010100110011 i"
b10100101000000010100110011 9#
b10100101000000010100110011 +
b10100101000000010100110011 0
b10100101000000010100110011 h"
b100000000100 Q"
b10100000000000000000000 O"
b100000001000 S"
b1001 P"
b101 R"
b101 b"
b0 5"
b0 9"
b101 A
b101 ("
b101 '#
b101 ,"
b1001 E
b1001 &"
b1001 $#
b1001 /"
b11111111111111111111111111111101 \
b11111111111111111111111111111101 q
b11111111111111111111111111111101 s"
b11111111111111111111111111111101 r
b11111111111111111111111111111101 {
bx g
bx $"
b11111111111111111111111111111101 s
b11111111111111111111111111111101 x
b0 u
b11000 >
b11000 j"
b11000 :#
b10100 !
b10100 N
b10100 g"
b10100 k"
b10100000000010010010011 J
b10100000000010010010011 3"
b10100000000010010010011 N"
b10100000000010010010011 ;#
b10100 %"
b10100 1
b10100 F
b10100 0"
b10100 )#
b10100 <#
b0 ]
b0 t
b0 z
b0 #"
b0 0#
1[
b1000 U
b1000 f
b1000 u"
b1000 4#
b11101 Q
b11101 m
b11101 7#
b0 S
b0 n
b0 5#
b11111111111111111111111111111101 Z
b11111111111111111111111111111101 l
b11111111111111111111111111111101 1#
b10000 V
b10000 3#
b111 5
b111 o
b111 }"
b111 ?#
b101010 $
b101010 b
b101010 l"
b101010 <
b101010 p
b101010 r"
b101010 {"
b101010 =#
b110 6
b110 j
b110 *"
b110 e"
b110 F#
b110 =
b110 k
b110 C#
b101 -
1)
#100000
0)
#105000
b111 h
b111 }
b101 \
b101 q
b101 s"
b101010 ;
b101010 )"
b101010 `"
b101 r
b101 {
b101 y
b111 u
b0 K
b0 4"
b0 L"
b0 "#
b0 _"
b0 @
b0 +"
b0 c"
b0 (#
b1010 M
b1010 7"
b1010 J"
b1010 !#
1D
0L
bx 9
bx o"
bx @#
bx *
bx /
bx m"
b101 s
b101 x
b1000000100000101000 Q"
b10100101000000000000000000 O"
b101010 S"
b101010 P"
b101001 R"
b110011 M"
b1001 b"
b1000 a"
b1 5"
b1 9"
b1001 A
b1001 ("
b1001 '#
b1001 ,"
b1000 C
b1000 '"
b1000 %#
b1000 ."
b1010 E
b1010 &"
b1010 $#
b1010 /"
b110011 1"
b110011 :"
b100000000000010110010011 ?
b100000000000010110010011 i"
b100000000000010110010011 9#
b100000000000010110010011 +
b100000000000010110010011 0
b100000000000010110010011 h"
b111 6
b111 j
b111 *"
b111 e"
b111 F#
b101010 =
b101010 k
b101010 C#
b1000 5
b1000 o
b1000 }"
b1000 ?#
b11111111111111111111111111111101 $
b11111111111111111111111111111101 b
b11111111111111111111111111111101 l"
b11111111111111111111111111111101 <
b11111111111111111111111111111101 p
b11111111111111111111111111111101 r"
b11111111111111111111111111111101 {"
b11111111111111111111111111111101 =#
b1001 U
b1001 f
b1001 u"
b1001 4#
b101 Q
b101 m
b101 7#
b101 Z
b101 l
b101 1#
b111 P
b111 d
b111 t"
b111 8#
b10100 V
b10100 3#
b10100101000000010100110011 J
b10100101000000010100110011 3"
b10100101000000010100110011 N"
b10100101000000010100110011 ;#
b11000 %"
b11000 1
b11000 F
b11000 0"
b11000 )#
b11000 <#
b11100 >
b11100 j"
b11100 :#
b11000 !
b11000 N
b11000 g"
b11000 k"
b110 -
1)
#110000
0)
#115000
b11111111111111111111111111111101 c
b11111111111111111111111111111101 w
b11111111111111111111111111111101 v
b1000 K
b1000 4"
b1000 L"
b1000 "#
b1000 _"
1L
1D
b0 M
b0 7"
b0 J"
b0 !#
b101 h
b101 }
b1111111111111111111111111111111111111111111111111111111111110001 ""
b10011111111111111111111111111110001 !"
b10011111111111111111111111111110001 ~
b11111111111111111111111111111101 i
b11111111111111111111111111111101 |
b101 y
b101 u
b11111111111111111111111111111101 ;
b11111111111111111111111111111101 )"
b11111111111111111111111111111101 `"
b11000000000011000010011 ?
b11000000000011000010011 i"
b11000000000011000010011 9#
b11000000000011000010011 +
b11000000000011000010011 0
b11000000000011000010011 h"
b1000 Q"
b100000000000000000000000 O"
b100000001010 S"
b1011 P"
b1000 R"
b10011 M"
b1000 b"
b0 a"
b0 5"
b0 9"
b1000 A
b1000 ("
b1000 '#
b1000 ,"
b0 C
b0 '"
b0 %#
b0 ."
b1011 E
b1011 &"
b1011 $#
b1011 /"
b10011 1"
b10011 :"
b11111111111111111111111111110001 \
b11111111111111111111111111110001 q
b11111111111111111111111111110001 s"
bx r
bx {
b11111111111111111111111111110001 g
b11111111111111111111111111110001 $"
b101 s
b101 x
b0 9
b0 o"
b0 @#
b0 *
b0 /
b0 m"
b100000 >
b100000 j"
b100000 :#
b11100 !
b11100 N
b11100 g"
b11100 k"
b100000000000010110010011 J
b100000000000010110010011 3"
b100000000000010110010011 N"
b100000000000010110010011 ;#
b11100 %"
b11100 1
b11100 F
b11100 0"
b11100 )#
b11100 <#
b1010 ]
b1010 t
b1010 z
b1010 #"
b1010 0#
0[
b1010 U
b1010 f
b1010 u"
b1010 4#
b1001 Q
b1001 m
b1001 7#
b1000 S
b1000 n
b1000 5#
b0 Z
b0 l
b0 1#
b0 P
b0 d
b0 t"
b0 8#
b11000 V
b11000 3#
b1001 5
b1001 o
b1001 }"
b1001 ?#
b111 #
b111 `
b111 ~"
b101 $
b101 b
b101 l"
b101 <
b101 p
b101 r"
b101 {"
b101 =#
b1000 6
b1000 j
b1000 *"
b1000 e"
b1000 F#
b11111111111111111111111111111101 =
b11111111111111111111111111111101 k
b11111111111111111111111111111101 C#
bx :
bx D#
b111 -
1)
#120000
0)
#125000
b0 i
b0 |
b0 ""
b0 !"
b0 ~
b0 h
b0 }
b0 c
b0 w
b0 v
b101 ;
b101 )"
b101 `"
b1000 y
b110 K
b110 4"
b110 L"
b110 "#
b110 _"
bx 9
bx o"
bx @#
bx *
bx /
bx m"
b0 u
b1000 \
b1000 q
b1000 s"
b1000 r
b1000 {
bx g
bx $"
b1000 s
b1000 x
b110 Q"
b11000000000000000000000 O"
b1100 S"
b1100 P"
b110 R"
b110 b"
b110 A
b110 ("
b110 '#
b110 ,"
b1100 E
b1100 &"
b1100 $#
b1100 /"
b10110001011000011010110011 ?
b10110001011000011010110011 i"
b10110001011000011010110011 9#
b10110001011000011010110011 +
b10110001011000011010110011 0
b10110001011000011010110011 h"
b110 @
b110 +"
b110 c"
b110 (#
b1001 6
b1001 j
b1001 *"
b1001 e"
b1001 F#
b101 =
b101 k
b101 C#
b0 :
b0 D#
b1010 5
b1010 o
b1010 }"
b1010 ?#
b0 #
b0 `
b0 ~"
b11111111111111111111111111110001 $
b11111111111111111111111111110001 b
b11111111111111111111111111110001 l"
b11111111111111111111111111110001 <
b11111111111111111111111111110001 p
b11111111111111111111111111110001 r"
b11111111111111111111111111110001 {"
b11111111111111111111111111110001 =#
b0 ]
b0 t
b0 z
b0 #"
b0 0#
1[
b1011 U
b1011 f
b1011 u"
b1011 4#
b1000 Q
b1000 m
b1000 7#
b0 S
b0 n
b0 5#
b1000 Z
b1000 l
b1000 1#
b11100 V
b11100 3#
b11000000000011000010011 J
b11000000000011000010011 3"
b11000000000011000010011 N"
b11000000000011000010011 ;#
b100000 %"
b100000 1
b100000 F
b100000 0"
b100000 )#
b100000 <#
b100100 >
b100100 j"
b100100 :#
b100000 !
b100000 N
b100000 g"
b100000 k"
b1000 -
1)
#130000
0)
