tb_cpu.vcd
$date
	Sat May 10 16:53:49 2025
$end
$version
	Icarus Verilog
$end
$timescale
	1ps
$end
$scope module tb_cpu $end
$var wire 32 ! i_mem_addr [31:0] $end
$var wire 4 " d_mem_wen [3:0] $end
$var wire 32 # d_mem_wdata [31:0] $end
$var wire 32 $ d_mem_addr [31:0] $end
$var parameter 32 % CLK_PERIOD $end
$var parameter 32 & MAX_SIM_CYCLES $end
$var parameter 32 ' MEM_SIZE_WORDS $end
$var parameter 64 ( RESET_DURATION $end
$var reg 1 ) clk $end
$var reg 32 * d_mem_rdata [31:0] $end
$var reg 32 + i_mem_rdata [31:0] $end
$var reg 1 , rst_n $end
$var integer 32 - cycle_count_sim [31:0] $end
$var integer 32 . j [31:0] $end
$scope module u_cpu $end
$var wire 1 ) clk $end
$var wire 32 / d_mem_rdata [31:0] $end
$var wire 32 0 ex_mem_rs2_data_for_store [31:0] $end
$var wire 32 1 i_mem_rdata [31:0] $end
$var wire 32 2 id_ex_pc_plus_4_for_jalr_jal [31:0] $end
$var wire 1 , rst_n $end
$var wire 1 3 mem_zero_flag $end
$var wire 1 4 mem_wb_reg_write_ctrl_from_exmem $end
$var wire 1 5 mem_wb_reg_write $end
$var wire 5 6 mem_wb_rd_addr_from_exmem [4:0] $end
$var wire 5 7 mem_wb_rd_addr [4:0] $end
$var wire 2 8 mem_wb_mem_to_reg_ctrl_from_exmem [1:0] $end
$var wire 2 9 mem_wb_mem_to_reg [1:0] $end
$var wire 32 : mem_wb_mem_rdata_from_mem [31:0] $end
$var wire 32 ; mem_wb_mem_rdata [31:0] $end
$var wire 32 < mem_wb_data [31:0] $end
$var wire 32 = mem_wb_alu_result_from_exmem [31:0] $end
$var wire 32 > mem_wb_alu_result [31:0] $end
$var wire 32 ? if_id_pc_plus_4 [31:0] $end
$var wire 32 @ if_id_instr [31:0] $end
$var wire 32 A id_ex_rs2_data [31:0] $end
$var wire 5 B id_ex_rs2_addr [4:0] $end
$var wire 32 C id_ex_rs1_data [31:0] $end
$var wire 5 D id_ex_rs1_addr [4:0] $end
$var wire 1 E id_ex_reg_write $end
$var wire 5 F id_ex_rd_addr [4:0] $end
$var wire 32 G id_ex_pc_plus_4 [31:0] $end
$var wire 1 H id_ex_mem_write $end
$var wire 2 I id_ex_mem_to_reg [1:0] $end
$var wire 1 J id_ex_mem_read $end
$var wire 32 K id_ex_instr [31:0] $end
$var wire 32 L id_ex_imm_ext [31:0] $end
$var wire 1 M id_ex_alu_src $end
$var wire 4 N id_ex_alu_op [3:0] $end
$var wire 32 O i_mem_addr [31:0] $end
$var wire 1 P ex_zero_flag $end
$var wire 32 Q ex_mem_rs2_data_for_alu [31:0] $end
$var wire 5 R ex_mem_rs2_addr [4:0] $end
$var wire 32 S ex_mem_rs1_data [31:0] $end
$var wire 5 T ex_mem_rs1_addr [4:0] $end
$var wire 1 U ex_mem_reg_write_ctrl $end
$var wire 5 V ex_mem_rd_addr_for_ex [4:0] $end
$var wire 32 W ex_mem_pc_plus_4 [31:0] $end
$var wire 1 X ex_mem_mem_write_ctrl $end
$var wire 2 Y ex_mem_mem_to_reg_ctrl [1:0] $end
$var wire 1 Z ex_mem_mem_read_ctrl $end
$var wire 32 [ ex_mem_imm_ext [31:0] $end
$var wire 1 \ ex_mem_alu_src $end
$var wire 32 ] ex_mem_alu_result_pre_fwd [31:0] $end
$var wire 4 ^ ex_mem_alu_op [3:0] $end
$var wire 1 _ d_mem_write_ctrl $end
$var wire 4 ` d_mem_wen [3:0] $end
$var wire 32 a d_mem_wdata [31:0] $end
$var wire 1 b d_mem_read_ctrl $end
$var wire 32 c d_mem_addr [31:0] $end
$scope module u_ex_stage $end
$var wire 32 d alu_operand_a [31:0] $end
$var wire 32 e alu_result_o [31:0] $end
$var wire 1 ) clk $end
$var wire 1 , rst_n $end
$var wire 1 P zero_flag_o $end
$var wire 32 f rs2_data_i [31:0] $end
$var wire 32 g rs1_data_i [31:0] $end
$var wire 32 h mul_result_internal [31:0] $end
$var wire 32 i imm_ext_i [31:0] $end
$var wire 1 \ alu_src_i $end
$var wire 32 j alu_result_internal [31:0] $end
$var wire 32 k alu_operand_b [31:0] $end
$var wire 4 l alu_op_i [3:0] $end
$scope module u_alu $end
$var wire 32 m operand_a_i [31:0] $end
$var wire 32 n operand_b_i [31:0] $end
$var wire 5 o shift_amount [4:0] $end
$var wire 4 p alu_op_i [3:0] $end
$var reg 32 q result_o [31:0] $end
$var reg 1 P zero_flag_o $end
$upscope $end
$scope module u_multiplier $end
$var wire 1 ) clk $end
$var wire 1 , rst_n $end
$var wire 64 r product_unsigned_unsigned [63:0] $end
$var wire 64 s product_signed_unsigned [63:0] $end
$var wire 64 t product_signed_signed [63:0] $end
$var wire 32 u operand_b_i [31:0] $end
$var wire 32 v operand_a_i [31:0] $end
$var wire 4 w mul_op_i [3:0] $end
$var reg 32 x result_o [31:0] $end
$upscope $end
$upscope $end
$scope module u_id_stage $end
$var wire 1 ) clk $end
$var wire 32 y id_pc_plus_4_o [31:0] $end
$var wire 5 z rd_addr_o [4:0] $end
$var wire 5 { rs1_addr_o [4:0] $end
$var wire 5 | rs2_addr_o [4:0] $end
$var wire 1 , rst_n $end
$var wire 32 } wb_data_i [31:0] $end
$var wire 1 5 wb_reg_write_i $end
$var wire 5 ~ wb_rd_addr_i [4:0] $end
$var wire 32 !" rs2_data_o [31:0] $end
$var wire 5 "" rs2 [4:0] $end
$var wire 32 #" rs1_data_o [31:0] $end
$var wire 5 $" rs1 [4:0] $end
$var wire 1 E reg_write_o $end
$var wire 5 %" rd [4:0] $end
$var wire 32 &" pc_plus_4_i [31:0] $end
$var wire 7 '" opcode [6:0] $end
$var wire 1 H mem_write_o $end
$var wire 2 (" mem_to_reg_o [1:0] $end
$var wire 1 J mem_read_o $end
$var wire 32 )" instr_i [31:0] $end
$var wire 32 *" imm_ext_o [31:0] $end
$var wire 7 +" funct7 [6:0] $end
$var wire 3 ," funct3 [2:0] $end
$var wire 1 M alu_src_o $end
$var wire 4 -" alu_op_o [3:0] $end
$scope module u_control_unit $end
$var wire 3 ." funct3 [2:0] $end
$var wire 7 /" funct7 [6:0] $end
$var wire 7 0" opcode [6:0] $end
$var parameter 4 1" DEFAULT_ALU_OP $end
$var parameter 1 2" DEFAULT_ALU_SRC $end
$var parameter 1 3" DEFAULT_MEM_READ $end
$var parameter 2 4" DEFAULT_MEM_TO_REG $end
$var parameter 1 5" DEFAULT_MEM_WRITE $end
$var parameter 1 6" DEFAULT_REG_WRITE $end
$var parameter 7 7" OPCODE_AUIPC $end
$var parameter 7 8" OPCODE_BRANCH $end
$var parameter 7 9" OPCODE_IMM $end
$var parameter 7 :" OPCODE_JAL $end
$var parameter 7 ;" OPCODE_JALR $end
$var parameter 7 <" OPCODE_LOAD $end
$var parameter 7 =" OPCODE_LUI $end
$var parameter 7 >" OPCODE_OP $end
$var parameter 7 ?" OPCODE_STORE $end
$var reg 4 @" alu_op_o [3:0] $end
$var reg 1 M alu_src_o $end
$var reg 1 J mem_read_o $end
$var reg 2 A" mem_to_reg_o [1:0] $end
$var reg 1 H mem_write_o $end
$var reg 1 E reg_write_o $end
$upscope $end
$scope module u_imm_gen $end
$var wire 32 B" imm_ext_o [31:0] $end
$var wire 7 C" opcode [6:0] $end
$var wire 32 D" instr [31:0] $end
$var wire 32 E" imm_u_type [31:0] $end
$var wire 32 F" imm_s_type [31:0] $end
$var wire 32 G" imm_j_type [31:0] $end
$var wire 32 H" imm_i_type [31:0] $end
$var wire 32 I" imm_b_type [31:0] $end
$var parameter 7 J" OPCODE_AMO $end
$var parameter 7 K" OPCODE_AUIPC $end
$var parameter 7 L" OPCODE_BRANCH $end
$var parameter 7 M" OPCODE_IMM $end
$var parameter 7 N" OPCODE_JAL $end
$var parameter 7 O" OPCODE_JALR $end
$var parameter 7 P" OPCODE_LOAD $end
$var parameter 7 Q" OPCODE_LUI $end
$var parameter 7 R" OPCODE_OP $end
$var parameter 7 S" OPCODE_STORE $end
$var parameter 7 T" OPCODE_SYSTEM $end
$var reg 32 U" selected_imm [31:0] $end
$upscope $end
$scope module u_reg_file $end
$var wire 1 ) clk $end
$var wire 32 V" rd_data [31:0] $end
$var wire 5 W" rs1_addr [4:0] $end
$var wire 5 X" rs2_addr [4:0] $end
$var wire 1 , rst_n $end
$var wire 1 5 wen $end
$var wire 32 Y" rs2_data [31:0] $end
$var wire 32 Z" rs1_data [31:0] $end
$var wire 5 [" rd_addr [4:0] $end
$var integer 32 \" i [31:0] $end
$upscope $end
$upscope $end
$scope module u_if_stage $end
$var wire 1 ) clk $end
$var wire 32 ]" i_mem_addr [31:0] $end
$var wire 32 ^" i_mem_rdata [31:0] $end
$var wire 32 _" if_id_instr_o [31:0] $end
$var wire 1 , rst_n $end
$var wire 32 `" if_id_pc_plus_4_o [31:0] $end
$var reg 32 a" pc_reg [31:0] $end
$upscope $end
$scope module u_mem_stage $end
$var wire 1 ) clk $end
$var wire 32 b" d_mem_addr_o [31:0] $end
$var wire 32 c" d_mem_rdata_i [31:0] $end
$var wire 32 d" d_mem_wdata_o [31:0] $end
$var wire 32 e" mem_rdata_o [31:0] $end
$var wire 32 f" rs2_data_i [31:0] $end
$var wire 1 , rst_n $end
$var wire 1 _ mem_write_i $end
$var wire 1 b mem_read_i $end
$var wire 4 g" d_mem_wen_o [3:0] $end
$var wire 32 h" alu_result_i [31:0] $end
$upscope $end
$scope module u_pipeline_reg_ex_mem $end
$var wire 1 ) clk $end
$var wire 32 i" ex_alu_result_i [31:0] $end
$var wire 32 j" ex_rs2_data_i [31:0] $end
$var wire 1 P ex_zero_flag_i $end
$var wire 1 , rst_n $end
$var wire 1 U ex_reg_write_i $end
$var wire 5 k" ex_rd_addr_i [4:0] $end
$var wire 1 X ex_mem_write_i $end
$var wire 2 l" ex_mem_to_reg_i [1:0] $end
$var wire 1 Z ex_mem_read_i $end
$var parameter 1 m" NOP_MEM_READ $end
$var parameter 2 n" NOP_MEM_TO_REG $end
$var parameter 1 o" NOP_MEM_WRITE $end
$var parameter 1 p" NOP_REG_WRITE $end
$var reg 32 q" mem_alu_result_o [31:0] $end
$var reg 1 b mem_mem_read_o $end
$var reg 2 r" mem_mem_to_reg_o [1:0] $end
$var reg 1 _ mem_mem_write_o $end
$var reg 5 s" mem_rd_addr_o [4:0] $end
$var reg 1 4 mem_reg_write_o $end
$var reg 32 t" mem_rs2_data_o [31:0] $end
$var reg 1 3 mem_zero_flag_o $end
$upscope $end
$scope module u_pipeline_reg_id_ex $end
$var wire 1 ) clk $end
$var wire 4 u" id_alu_op_i [3:0] $end
$var wire 1 M id_alu_src_i $end
$var wire 32 v" id_imm_ext_i [31:0] $end
$var wire 1 J id_mem_read_i $end
$var wire 2 w" id_mem_to_reg_i [1:0] $end
$var wire 1 H id_mem_write_i $end
$var wire 5 x" id_rd_addr_i [4:0] $end
$var wire 1 E id_reg_write_i $end
$var wire 5 y" id_rs1_addr_i [4:0] $end
$var wire 32 z" id_rs1_data_i [31:0] $end
$var wire 5 {" id_rs2_addr_i [4:0] $end
$var wire 32 |" id_rs2_data_i [31:0] $end
$var wire 1 , rst_n $end
$var wire 32 }" id_pc_plus_4_i [31:0] $end
$var parameter 4 ~" NOP_ALU_OP $end
$var parameter 1 !# NOP_ALU_SRC $end
$var parameter 1 "# NOP_MEM_READ $end
$var parameter 2 ## NOP_MEM_TO_REG $end
$var parameter 1 $# NOP_MEM_WRITE $end
$var parameter 1 %# NOP_REG_WRITE $end
$var reg 4 &# ex_alu_op_o [3:0] $end
$var reg 1 \ ex_alu_src_o $end
$var reg 32 '# ex_imm_ext_o [31:0] $end
$var reg 1 Z ex_mem_read_o $end
$var reg 2 (# ex_mem_to_reg_o [1:0] $end
$var reg 1 X ex_mem_write_o $end
$var reg 32 )# ex_pc_plus_4_o [31:0] $end
$var reg 5 *# ex_rd_addr_o [4:0] $end
$var reg 1 U ex_reg_write_o $end
$var reg 5 +# ex_rs1_addr_o [4:0] $end
$var reg 32 ,# ex_rs1_data_o [31:0] $end
$var reg 5 -# ex_rs2_addr_o [4:0] $end
$var reg 32 .# ex_rs2_data_o [31:0] $end
$upscope $end
$scope module u_pipeline_reg_if_id $end
$var wire 1 ) clk $end
$var wire 32 /# if_instr_i [31:0] $end
$var wire 32 0# if_pc_plus_4_i [31:0] $end
$var wire 1 , rst_n $end
$var reg 32 1# id_instr_o [31:0] $end
$var reg 32 2# id_pc_plus_4_o [31:0] $end
$upscope $end
$scope module u_pipeline_reg_mem_wb $end
$var wire 1 ) clk $end
$var wire 32 3# mem_alu_result_i [31:0] $end
$var wire 2 4# mem_mem_to_reg_i [1:0] $end
$var wire 5 5# mem_rd_addr_i [4:0] $end
$var wire 32 6# mem_rdata_i [31:0] $end
$var wire 1 4 mem_reg_write_i $end
$var wire 1 , rst_n $end
$var parameter 2 7# NOP_MEM_TO_REG $end
$var parameter 1 8# NOP_REG_WRITE $end
$var reg 32 9# wb_alu_result_o [31:0] $end
$var reg 32 :# wb_mem_rdata_o [31:0] $end
$var reg 2 ;# wb_mem_to_reg_o [1:0] $end
$var reg 5 <# wb_rd_addr_o [4:0] $end
$var reg 1 5 wb_reg_write_o $end
$upscope $end
$upscope $end
$upscope $end
$enddefinitions $end
$comment Show the parameter values. $end
$dumpall
08#
b0 7#
0%#
0$#
b0 ##
0"#
0!#
b0 ~"
0p"
0o"
b0 n"
0m"
b1110011 T"
b100011 S"
b110011 R"
b110111 Q"
b11 P"
b1100111 O"
b1101111 N"
b10011 M"
b1100011 L"
b10111 K"
b101111 J"
b100011 ?"
b110011 >"
b110111 ="
b11 <"
b1100111 ;"
b1101111 :"
b10011 9"
b1100011 8"
b10111 7"
06"
05"
b0 4"
03"
02"
b0 1"
b110010 (
b10000000000 '
b1111101000 &
b1010 %
$end
#0
$dumpvars
b0 <#
b0 ;#
b0 :#
b0 9#
b0 6#
b0 5#
b0 4#
b0 3#
b0 2#
b10011 1#
b100 0#
b100000000000100010011 /#
b0 .#
b0 -#
b0 ,#
b0 +#
b0 *#
b0 )#
b0 (#
b0 '#
b0 &#
b0 }"
b0 |"
b0 {"
b0 z"
b0 y"
b0 x"
b0 w"
b0 v"
b0 u"
b0 t"
b0 s"
b0 r"
b0 q"
b0 l"
b0 k"
bz j"
b0 i"
b0 h"
b0 g"
bz f"
b0 e"
bz d"
b0 c"
b0 b"
b0 a"
b100 `"
b100000000000100010011 _"
b100000000000100010011 ^"
b0 ]"
b100000 \"
b0 ["
b0 Z"
b0 Y"
b0 X"
b0 W"
b0 V"
b0 U"
b0 I"
b0 H"
b0 G"
b0 F"
b0 E"
b10011 D"
b10011 C"
b0 B"
b0 A"
b0 @"
b10011 0"
b0 /"
b0 ."
b0 -"
b0 ,"
b0 +"
b0 *"
b10011 )"
b0 ("
b10011 '"
b0 &"
b0 %"
b0 $"
b0 #"
b0 ""
b0 !"
b0 ~
b0 }
b0 |
b0 {
b0 z
b0 y
bx x
b0 w
b0 v
b0 u
b0 t
b0 s
b0 r
b0 q
b0 p
b0 o
b0 n
b0 m
b0 l
b0 k
b0 j
b0 i
bx h
b0 g
b0 f
b0 e
b0 d
b0 c
0b
b0 a
b0 `
0_
b0 ^
b0 ]
0\
b0 [
0Z
b0 Y
0X
b0 W
b0 V
0U
b0 T
b0 S
b0 R
b0 Q
1P
b0 O
b0 N
1M
b0 L
b10011 K
0J
b0 I
0H
b0 G
b0 F
1E
b0 D
b0 C
b0 B
b0 A
b100000000000100010011 @
b100 ?
b0 >
b0 =
b0 <
b0 ;
b0 :
b0 9
b0 8
b0 7
b0 6
05
04
03
b0 2
b100000000000100010011 1
bz 0
b0 /
b10000000000 .
b0 -
0,
b100000000000100010011 +
b0 *
0)
b0 $
b0 #
b0 "
b0 !
$end
#5000
b100000 \"
1)
#10000
0)
#15000
b100000 \"
1)
#20000
0)
#25000
b100000 \"
1)
#30000
0)
#35000
b100000 \"
1)
#40000
0)
#45000
b100000 \"
1)
#50000
0)
1,
#55000
b1 L
b1 *"
b1 B"
b1 v"
b1 U"
b1000000000000110010011 @
b1000000000000110010011 _"
b1000000000000110010011 /#
b1000000000000110010011 +
b1000000000000110010011 1
b1000000000000110010011 ^"
b100000000000 G"
b100000000000000000000 E"
b10 I"
b10 F"
b1 H"
b1 B
b1 |
b1 {"
b1 ""
b1 X"
b10 F
b10 z
b10 x"
b10 %"
b1000 ?
b1000 `"
b1000 0#
b100 !
b100 O
b100 ]"
b100 a"
b100000000000100010011 K
b100000000000100010011 )"
b100000000000100010011 D"
b100000000000100010011 1#
b100 y
b100 2
b100 G
b100 &"
b100 }"
b100 2#
1U
1\
13
bz #
bz a
bz t"
b1 -
1)
#60000
0)
#65000
0P
b1 ]
b1 e
b1 i"
b1 j
b1 q
b1 o
b10 L
b10 *"
b10 B"
b10 v"
b10 U"
b1 k
b1 n
b10 G"
b1000000000000000000000 E"
b100000000010 I"
b11 F"
b10 H"
b10 B
b10 |
b10 {"
b10 ""
b10 X"
b11 F
b11 z
b11 x"
b11 %"
b10011 @
b10011 _"
b10011 /#
b10011 +
b10011 1
b10011 ^"
14
b10 V
b10 k"
b10 *#
b1 R
b1 -#
b1 [
b1 i
b1 '#
b100 W
b100 )#
b1000000000000110010011 K
b1000000000000110010011 )"
b1000000000000110010011 D"
b1000000000000110010011 1#
b1000 y
b1000 2
b1000 G
b1000 &"
b1000 }"
b1000 2#
b1100 ?
b1100 `"
b1100 0#
b1000 !
b1000 O
b1000 ]"
b1000 a"
b10 -
1)
#70000
0)
#75000
b0 L
b0 *"
b0 B"
b0 v"
b0 U"
b10 ]
b10 e
b10 i"
b10 j
b10 q
b10 o
b0 G"
b0 E"
b0 I"
b0 F"
b0 H"
b0 B
b0 |
b0 {"
b0 ""
b0 X"
b0 F
b0 z
b0 x"
b0 %"
b10 k
b10 n
b10000 ?
b10000 `"
b10000 0#
b1100 !
b1100 O
b1100 ]"
b1100 a"
b10011 K
b10011 )"
b10011 D"
b10011 1#
b1100 y
b1100 2
b1100 G
b1100 &"
b1100 }"
b1100 2#
b11 V
b11 k"
b11 *#
b10 R
b10 -#
b10 [
b10 i
b10 '#
b1000 W
b1000 )#
03
b10 6
b10 s"
b10 5#
b1 $
b1 c
b1 b"
b1 =
b1 h"
b1 q"
b1 3#
15
b11 -
1)
#80000
0)
#85000
1P
b1 <
b1 }
b1 V"
b0 ]
b0 e
b0 i"
b0 j
b0 q
b0 o
b0 k
b0 n
b10 7
b10 ~
b10 ["
b10 <#
b1 >
b1 9#
b11 6
b11 s"
b11 5#
b10 $
b10 c
b10 b"
b10 =
b10 h"
b10 q"
b10 3#
b0 V
b0 k"
b0 *#
b0 R
b0 -#
b0 [
b0 i
b0 '#
b1100 W
b1100 )#
b10000 y
b10000 2
b10000 G
b10000 &"
b10000 }"
b10000 2#
b10100 ?
b10100 `"
b10100 0#
b10000 !
b10000 O
b10000 ]"
b10000 a"
b100 -
1)
#90000
0)
#95000
b10 <
b10 }
b10 V"
b1100010000001000110011 @
b1100010000001000110011 _"
b1100010000001000110011 /#
b1100010000001000110011 +
b1100010000001000110011 1
b1100010000001000110011 ^"
b11000 ?
b11000 `"
b11000 0#
b10100 !
b10100 O
b10100 ]"
b10100 a"
b10100 y
b10100 2
b10100 G
b10100 &"
b10100 }"
b10100 2#
b10000 W
b10000 )#
13
b0 6
b0 s"
b0 5#
b0 $
b0 c
b0 b"
b0 =
b0 h"
b0 q"
b0 3#
b11 7
b11 ~
b11 ["
b11 <#
b10 >
b10 9#
b101 -
1)
#100000
0)
#105000
b0 <
b0 }
b0 V"
b10 A
b10 !"
b10 Y"
b10 |"
b1 C
b1 #"
b1 Z"
b1 z"
1E
0M
b10000100000000010 G"
b1100010000000000000000 E"
b100 I"
b100 F"
b11 H"
b110011 C"
b11 B
b11 |
b11 {"
b11 ""
b11 X"
b10 D
b10 {
b10 y"
b10 $"
b10 W"
b100 F
b100 z
b100 x"
b100 %"
b110011 '"
b110011 0"
b1100011 @
b1100011 _"
b1100011 /#
b1100011 +
b1100011 1
b1100011 ^"
b0 7
b0 ~
b0 ["
b0 <#
b0 >
b0 9#
b10100 W
b10100 )#
b1100010000001000110011 K
b1100010000001000110011 )"
b1100010000001000110011 D"
b1100010000001000110011 1#
b11000 y
b11000 2
b11000 G
b11000 &"
b11000 }"
b11000 2#
b11100 ?
b11100 `"
b11100 0#
b11000 !
b11000 O
b11000 ]"
b11000 a"
b110 -
1)
#110000
0)
#115000
b0 A
b0 !"
b0 Y"
b0 |"
b0 C
b0 #"
b0 Z"
b0 z"
b1 N
b1 -"
b1 @"
b1 u"
0E
b10 o
0P
b10011 @
b10011 _"
b10011 /#
b10011 +
b10011 1
b10011 ^"
b0 G"
b0 E"
b0 I"
b0 F"
b0 H"
b1100011 C"
b0 B
b0 |
b0 {"
b0 ""
b0 X"
b0 D
b0 {
b0 y"
b0 $"
b0 W"
b0 F
b0 z
b0 x"
b0 %"
b1100011 '"
b1100011 0"
b10 k
b10 n
b11 ]
b11 e
b11 i"
b11 j
b11 q
b100000 ?
b100000 `"
b100000 0#
b11100 !
b11100 O
b11100 ]"
b11100 a"
b1100011 K
b1100011 )"
b1100011 D"
b1100011 1#
b11100 y
b11100 2
b11100 G
b11100 &"
b11100 }"
b11100 2#
0\
b100 V
b100 k"
b100 *#
b11 R
b11 -#
b10 T
b10 +#
b10 r
b10 s
b10 t
b10 Q
b10 f
b10 u
b10 .#
b1 d
b1 m
b1 S
b1 g
b1 v
b1 ,#
b11000 W
b11000 )#
b111 -
1)
#120000
0)
#125000
1P
b0 o
1E
1M
b0 N
b0 -"
b0 @"
b0 u"
b0 k
b0 n
b0 ]
b0 e
b0 i"
b0 j
b0 q
b10011 C"
b10011 '"
b10011 0"
bx @
bx _"
bx /#
bx +
bx 1
bx ^"
03
b100 6
b100 s"
b100 5#
b11 $
b11 c
b11 b"
b11 =
b11 h"
b11 q"
b11 3#
0U
b1 ^
b1 l
b1 p
b1 w
b1 &#
b0 V
b0 k"
b0 *#
b0 R
b0 -#
b0 T
b0 +#
b0 Q
b0 f
b0 u
b0 .#
b0 r
b0 s
b0 t
b0 d
b0 m
b0 S
b0 g
b0 v
b0 ,#
b11100 W
b11100 )#
b10011 K
b10011 )"
b10011 D"
b10011 1#
b100000 y
b100000 2
b100000 G
b100000 &"
b100000 }"
b100000 2#
b100100 ?
b100100 `"
b100100 0#
b100000 !
b100000 O
b100000 ]"
b100000 a"
b1000 -
1)
#130000
0)
#135000
bx A
bx !"
bx Y"
bx |"
bx C
bx #"
bx Z"
bx z"
0E
0M
b11 <
b11 }
b11 V"
bx0 G"
bx000000000000 E"
bx0 I"
bx F"
bx H"
bx C"
bx +"
bx /"
bx B
bx |
bx {"
bx ""
bx X"
bx D
bx {
bx y"
bx $"
bx W"
bx ,"
bx ."
bx F
bx z
bx x"
bx %"
bx '"
bx 0"
b0 ]
b0 e
b0 i"
b0 j
b0 q
b101000 ?
b101000 `"
b101000 0#
b100100 !
b100100 O
b100100 ]"
b100100 a"
bx K
bx )"
bx D"
bx 1#
b100100 y
b100100 2
b100100 G
b100100 &"
b100100 }"
b100100 2#
1U
b0 ^
b0 l
b0 p
b0 w
b0 &#
1\
b100000 W
b100000 )#
04
13
b0 6
b0 s"
b0 5#
b0 $
b0 c
b0 b"
b0 =
b0 h"
b0 q"
b0 3#
b100 7
b100 ~
b100 ["
b100 <#
b11 >
b11 9#
b1001 -
1)
#140000
0)
#145000
b0 <
b0 }
b0 V"
bx o
0P
bx k
bx n
bx ]
bx e
bx i"
bx j
bx q
05
b0 7
b0 ~
b0 ["
b0 <#
b0 >
b0 9#
14
0U
0\
bx V
bx k"
bx *#
bx R
bx -#
bx T
bx +#
bx Q
bx f
bx u
bx .#
bx r
bx s
bx t
bx d
bx m
bx S
bx g
bx v
bx ,#
b100100 W
b100100 )#
b101000 y
b101000 2
b101000 G
b101000 &"
b101000 }"
b101000 2#
b101100 ?
b101100 `"
b101100 0#
b101000 !
b101000 O
b101000 ]"
b101000 a"
b1010 -
1)
#150000
0)
#155000
bx :
bx e"
bx 6#
bx *
bx /
bx c"
b110000 ?
b110000 `"
b110000 0#
b101100 !
b101100 O
b101100 ]"
b101100 a"
b101100 y
b101100 2
b101100 G
b101100 &"
b101100 }"
b101100 2#
b101000 W
b101000 )#
04
03
bx 6
bx s"
bx 5#
bx $
bx c
bx b"
bx =
bx h"
bx q"
bx 3#
15
b1011 -
1)
#160000
0)
#165000
bx <
bx }
bx V"
05
bx 7
bx ~
bx ["
bx <#
bx >
bx 9#
bx ;
bx :#
b101100 W
b101100 )#
b110000 y
b110000 2
b110000 G
b110000 &"
b110000 }"
b110000 2#
b110100 ?
b110100 `"
b110100 0#
b110000 !
b110000 O
b110000 ]"
b110000 a"
b1100 -
1)
#170000
0)
#175000
b111000 ?
b111000 `"
b111000 0#
b110100 !
b110100 O
b110100 ]"
b110100 a"
b110100 y
b110100 2
b110100 G
b110100 &"
b110100 }"
b110100 2#
b110000 W
b110000 )#
b1101 -
1)
#180000
0)
#185000
b110100 W
b110100 )#
b111000 y
b111000 2
b111000 G
b111000 &"
b111000 }"
b111000 2#
b111100 ?
b111100 `"
b111100 0#
b111000 !
b111000 O
b111000 ]"
b111000 a"
b1110 -
1)
#190000
0)
#195000
b1000000 ?
b1000000 `"
b1000000 0#
b111100 !
b111100 O
b111100 ]"
b111100 a"
b111100 y
b111100 2
b111100 G
b111100 &"
b111100 }"
b111100 2#
b111000 W
b111000 )#
b1111 -
1)
#200000
0)
#205000
b111100 W
b111100 )#
b1000000 y
b1000000 2
b1000000 G
b1000000 &"
b1000000 }"
b1000000 2#
b1000100 ?
b1000100 `"
b1000100 0#
b1000000 !
b1000000 O
b1000000 ]"
b1000000 a"
b10000 -
1)
#210000
0)
#215000
b1001000 ?
b1001000 `"
b1001000 0#
b1000100 !
b1000100 O
b1000100 ]"
b1000100 a"
b1000100 y
b1000100 2
b1000100 G
b1000100 &"
b1000100 }"
b1000100 2#
b1000000 W
b1000000 )#
b10001 -
1)
#220000
0)
#225000
b1000100 W
b1000100 )#
b1001000 y
b1001000 2
b1001000 G
b1001000 &"
b1001000 }"
b1001000 2#
b1001100 ?
b1001100 `"
b1001100 0#
b1001000 !
b1001000 O
b1001000 ]"
b1001000 a"
b10010 -
1)
#230000
0)
#235000
b1010000 ?
b1010000 `"
b1010000 0#
b1001100 !
b1001100 O
b1001100 ]"
b1001100 a"
b1001100 y
b1001100 2
b1001100 G
b1001100 &"
b1001100 }"
b1001100 2#
b1001000 W
b1001000 )#
b10011 -
1)
#240000
0)
#245000
b1001100 W
b1001100 )#
b1010000 y
b1010000 2
b1010000 G
b1010000 &"
b1010000 }"
b1010000 2#
b1010100 ?
b1010100 `"
b1010100 0#
b1010000 !
b1010000 O
b1010000 ]"
b1010000 a"
b10100 -
1)
#250000
0)
#255000
b1011000 ?
b1011000 `"
b1011000 0#
b1010100 !
b1010100 O
b1010100 ]"
b1010100 a"
b1010100 y
b1010100 2
b1010100 G
b1010100 &"
b1010100 }"
b1010100 2#
b1010000 W
b1010000 )#
b10101 -
1)
#260000
0)
#265000
b1010100 W
b1010100 )#
b1011000 y
b1011000 2
b1011000 G
b1011000 &"
b1011000 }"
b1011000 2#
b1011100 ?
b1011100 `"
b1011100 0#
b1011000 !
b1011000 O
b1011000 ]"
b1011000 a"
b10110 -
1)
#270000
0)
#275000
b1100000 ?
b1100000 `"
b1100000 0#
b1011100 !
b1011100 O
b1011100 ]"
b1011100 a"
b1011100 y
b1011100 2
b1011100 G
b1011100 &"
b1011100 }"
b1011100 2#
b1011000 W
b1011000 )#
b10111 -
1)
#280000
0)
#285000
b1011100 W
b1011100 )#
b1100000 y
b1100000 2
b1100000 G
b1100000 &"
b1100000 }"
b1100000 2#
b1100100 ?
b1100100 `"
b1100100 0#
b1100000 !
b1100000 O
b1100000 ]"
b1100000 a"
b11000 -
1)
#290000
0)
#295000
b1101000 ?
b1101000 `"
b1101000 0#
b1100100 !
b1100100 O
b1100100 ]"
b1100100 a"
b1100100 y
b1100100 2
b1100100 G
b1100100 &"
b1100100 }"
b1100100 2#
b1100000 W
b1100000 )#
b11001 -
1)
#300000
0)
#305000
b1100100 W
b1100100 )#
b1101000 y
b1101000 2
b1101000 G
b1101000 &"
b1101000 }"
b1101000 2#
b1101100 ?
b1101100 `"
b1101100 0#
b1101000 !
b1101000 O
b1101000 ]"
b1101000 a"
b11010 -
1)
#310000
0)
#315000
b1110000 ?
b1110000 `"
b1110000 0#
b1101100 !
b1101100 O
b1101100 ]"
b1101100 a"
b1101100 y
b1101100 2
b1101100 G
b1101100 &"
b1101100 }"
b1101100 2#
b1101000 W
b1101000 )#
b11011 -
1)
#320000
0)
#325000
b1101100 W
b1101100 )#
b1110000 y
b1110000 2
b1110000 G
b1110000 &"
b1110000 }"
b1110000 2#
b1110100 ?
b1110100 `"
b1110100 0#
b1110000 !
b1110000 O
b1110000 ]"
b1110000 a"
b11100 -
1)
#330000
0)
#335000
b1111000 ?
b1111000 `"
b1111000 0#
b1110100 !
b1110100 O
b1110100 ]"
b1110100 a"
b1110100 y
b1110100 2
b1110100 G
b1110100 &"
b1110100 }"
b1110100 2#
b1110000 W
b1110000 )#
b11101 -
1)
#340000
0)
#345000
b1110100 W
b1110100 )#
b1111000 y
b1111000 2
b1111000 G
b1111000 &"
b1111000 }"
b1111000 2#
b1111100 ?
b1111100 `"
b1111100 0#
b1111000 !
b1111000 O
b1111000 ]"
b1111000 a"
b11110 -
1)
#350000
0)
