tb_mul_test.vcd
$date
	Sat May 17 11:42:15 2025
$end
$version
	Icarus Verilog
$end
$timescale
	1ps
$end
$scope module tb_mul_test $end
$var wire 32 ! i_mem_addr [31:0] $end
$var wire 4 " d_mem_wen [3:0] $end
$var wire 32 # d_mem_wdata [31:0] $end
$var wire 32 $ d_mem_addr [31:0] $end
$var parameter 32 % CLK_PERIOD $end
$var parameter 32 & MAX_SIM_CYCLES $end
$var parameter 32 ' MEM_SIZE_WORDS $end
$var parameter 64 ( RESET_DURATION $end
$var reg 1 ) clk $end
$var reg 32 * d_mem_rdata [31:0] $end
$var reg 32 + i_mem_rdata [31:0] $end
$var reg 1 , rst_n $end
$var integer 32 - cycle_count_sim [31:0] $end
$var integer 32 . i [31:0] $end
$scope module u_cpu $end
$var wire 1 ) clk $end
$var wire 32 / d_mem_rdata [31:0] $end
$var wire 32 0 i_mem_rdata [31:0] $end
$var wire 32 1 id_ex_pc_plus_4_for_jalr_jal [31:0] $end
$var wire 1 , rst_n $end
$var wire 1 2 mem_zero_flag $end
$var wire 1 3 mem_wb_reg_write_ctrl_from_exmem $end
$var wire 1 4 mem_wb_reg_write $end
$var wire 5 5 mem_wb_rd_addr_from_exmem [4:0] $end
$var wire 5 6 mem_wb_rd_addr [4:0] $end
$var wire 2 7 mem_wb_mem_to_reg_ctrl_from_exmem [1:0] $end
$var wire 2 8 mem_wb_mem_to_reg [1:0] $end
$var wire 32 9 mem_wb_mem_rdata_from_mem [31:0] $end
$var wire 32 : mem_wb_mem_rdata [31:0] $end
$var wire 32 ; mem_wb_data [31:0] $end
$var wire 32 < mem_wb_alu_result_from_exmem [31:0] $end
$var wire 32 = mem_wb_alu_result [31:0] $end
$var wire 32 > if_id_pc_plus_4 [31:0] $end
$var wire 32 ? if_id_instr [31:0] $end
$var wire 32 @ id_ex_rs2_data [31:0] $end
$var wire 5 A id_ex_rs2_addr [4:0] $end
$var wire 32 B id_ex_rs1_data [31:0] $end
$var wire 5 C id_ex_rs1_addr [4:0] $end
$var wire 1 D id_ex_reg_write $end
$var wire 5 E id_ex_rd_addr [4:0] $end
$var wire 32 F id_ex_pc_plus_4 [31:0] $end
$var wire 1 G id_ex_mem_write $end
$var wire 2 H id_ex_mem_to_reg [1:0] $end
$var wire 1 I id_ex_mem_read $end
$var wire 32 J id_ex_instr [31:0] $end
$var wire 32 K id_ex_imm_ext [31:0] $end
$var wire 1 L id_ex_alu_src $end
$var wire 4 M id_ex_alu_op [3:0] $end
$var wire 32 N i_mem_addr [31:0] $end
$var wire 2 O forward_b_sel [1:0] $end
$var wire 2 P forward_a_sel [1:0] $end
$var wire 1 Q ex_zero_flag $end
$var wire 32 R ex_mem_rs2_data_for_alu [31:0] $end
$var wire 5 S ex_mem_rs2_addr [4:0] $end
$var wire 32 T ex_mem_rs1_data [31:0] $end
$var wire 5 U ex_mem_rs1_addr [4:0] $end
$var wire 1 V ex_mem_reg_write_ctrl $end
$var wire 5 W ex_mem_rd_addr_for_ex [4:0] $end
$var wire 32 X ex_mem_pc_plus_4 [31:0] $end
$var wire 1 Y ex_mem_mem_write_ctrl $end
$var wire 2 Z ex_mem_mem_to_reg_ctrl [1:0] $end
$var wire 1 [ ex_mem_mem_read_ctrl $end
$var wire 32 \ ex_mem_imm_ext [31:0] $end
$var wire 1 ] ex_mem_alu_src $end
$var wire 32 ^ ex_mem_alu_result_pre_fwd [31:0] $end
$var wire 4 _ ex_mem_alu_op [3:0] $end
$var wire 1 ` d_mem_write_ctrl $end
$var wire 4 a d_mem_wen [3:0] $end
$var wire 32 b d_mem_wdata [31:0] $end
$var wire 1 c d_mem_read_ctrl $end
$var wire 32 d d_mem_addr [31:0] $end
$scope module u_ex_stage $end
$var wire 32 e alu_operand_a [31:0] $end
$var wire 1 ) clk $end
$var wire 1 , rst_n $end
$var wire 1 Q zero_flag_o $end
$var wire 32 f rs2_data_i [31:0] $end
$var wire 32 g rs1_data_i [31:0] $end
$var wire 5 h rd_addr_i [4:0] $end
$var wire 32 i mul_result_internal [31:0] $end
$var wire 1 4 mem_wb_reg_write_i $end
$var wire 5 j mem_wb_rd_addr_i [4:0] $end
$var wire 32 k mem_wb_alu_result_i [31:0] $end
$var wire 32 l imm_ext_i [31:0] $end
$var wire 5 m id_ex_rs2_addr_i [4:0] $end
$var wire 5 n id_ex_rs1_addr_i [4:0] $end
$var wire 32 o forwarded_rs2_data [31:0] $end
$var wire 32 p forwarded_rs1_data [31:0] $end
$var wire 2 q forward_b_sel_i [1:0] $end
$var wire 2 r forward_a_sel_i [1:0] $end
$var wire 1 3 ex_mem_reg_write_i $end
$var wire 5 s ex_mem_rd_addr_i [4:0] $end
$var wire 32 t ex_mem_alu_result_i [31:0] $end
$var wire 1 ] alu_src_i $end
$var wire 32 u alu_result_o [31:0] $end
$var wire 32 v alu_result_internal [31:0] $end
$var wire 32 w alu_operand_b [31:0] $end
$var wire 4 x alu_op_i [3:0] $end
$scope module u_alu $end
$var wire 32 y operand_a_i [31:0] $end
$var wire 32 z operand_b_i [31:0] $end
$var wire 5 { shift_amount [4:0] $end
$var wire 4 | alu_op_i [3:0] $end
$var reg 32 } result_o [31:0] $end
$var reg 1 Q zero_flag_o $end
$upscope $end
$scope module u_multiplier $end
$var wire 1 ) clk $end
$var wire 32 ~ operand_a_i [31:0] $end
$var wire 32 !" operand_b_i [31:0] $end
$var wire 1 , rst_n $end
$var wire 64 "" product_unsigned_unsigned [63:0] $end
$var wire 64 #" product_signed_unsigned [63:0] $end
$var wire 64 $" product_signed_signed [63:0] $end
$var wire 4 %" mul_op_i [3:0] $end
$var reg 32 &" result_o [31:0] $end
$upscope $end
$upscope $end
$scope module u_forwarding_unit $end
$var wire 1 ) clk $end
$var wire 1 , rst_n $end
$var wire 1 4 mem_wb_reg_write_i $end
$var wire 5 '" mem_wb_rd_addr_i [4:0] $end
$var wire 5 (" id_ex_rs2_addr_i [4:0] $end
$var wire 5 )" id_ex_rs1_addr_i [4:0] $end
$var wire 1 3 ex_mem_reg_write_i $end
$var wire 5 *" ex_mem_rd_addr_i [4:0] $end
$var reg 2 +" forward_a_sel_o [1:0] $end
$var reg 2 ," forward_b_sel_o [1:0] $end
$upscope $end
$scope module u_id_stage $end
$var wire 1 ) clk $end
$var wire 32 -" id_pc_plus_4_o [31:0] $end
$var wire 5 ." rd_addr_o [4:0] $end
$var wire 5 /" rs1_addr_o [4:0] $end
$var wire 5 0" rs2_addr_o [4:0] $end
$var wire 1 , rst_n $end
$var wire 32 1" wb_data_i [31:0] $end
$var wire 1 4 wb_reg_write_i $end
$var wire 5 2" wb_rd_addr_i [4:0] $end
$var wire 32 3" rs2_data_o [31:0] $end
$var wire 5 4" rs2 [4:0] $end
$var wire 32 5" rs1_data_o [31:0] $end
$var wire 5 6" rs1 [4:0] $end
$var wire 1 D reg_write_o $end
$var wire 5 7" rd [4:0] $end
$var wire 32 8" pc_plus_4_i [31:0] $end
$var wire 7 9" opcode [6:0] $end
$var wire 1 G mem_write_o $end
$var wire 2 :" mem_to_reg_o [1:0] $end
$var wire 1 I mem_read_o $end
$var wire 32 ;" instr_i [31:0] $end
$var wire 32 <" imm_ext_o [31:0] $end
$var wire 7 =" funct7 [6:0] $end
$var wire 3 >" funct3 [2:0] $end
$var wire 1 L alu_src_o $end
$var wire 4 ?" alu_op_o [3:0] $end
$scope module u_control_unit $end
$var wire 3 @" funct3 [2:0] $end
$var wire 7 A" funct7 [6:0] $end
$var wire 7 B" opcode [6:0] $end
$var parameter 4 C" DEFAULT_ALU_OP $end
$var parameter 1 D" DEFAULT_ALU_SRC $end
$var parameter 1 E" DEFAULT_MEM_READ $end
$var parameter 2 F" DEFAULT_MEM_TO_REG $end
$var parameter 1 G" DEFAULT_MEM_WRITE $end
$var parameter 1 H" DEFAULT_REG_WRITE $end
$var parameter 7 I" OPCODE_AUIPC $end
$var parameter 7 J" OPCODE_BRANCH $end
$var parameter 7 K" OPCODE_IMM $end
$var parameter 7 L" OPCODE_JAL $end
$var parameter 7 M" OPCODE_JALR $end
$var parameter 7 N" OPCODE_LOAD $end
$var parameter 7 O" OPCODE_LUI $end
$var parameter 7 P" OPCODE_OP $end
$var parameter 7 Q" OPCODE_STORE $end
$var reg 4 R" alu_op_o [3:0] $end
$var reg 1 L alu_src_o $end
$var reg 1 I mem_read_o $end
$var reg 2 S" mem_to_reg_o [1:0] $end
$var reg 1 G mem_write_o $end
$var reg 1 D reg_write_o $end
$upscope $end
$scope module u_imm_gen $end
$var wire 32 T" imm_ext_o [31:0] $end
$var wire 7 U" opcode [6:0] $end
$var wire 32 V" instr [31:0] $end
$var wire 32 W" imm_u_type [31:0] $end
$var wire 32 X" imm_s_type [31:0] $end
$var wire 32 Y" imm_j_type [31:0] $end
$var wire 32 Z" imm_i_type [31:0] $end
$var wire 32 [" imm_b_type [31:0] $end
$var parameter 7 \" OPCODE_AMO $end
$var parameter 7 ]" OPCODE_AUIPC $end
$var parameter 7 ^" OPCODE_BRANCH $end
$var parameter 7 _" OPCODE_IMM $end
$var parameter 7 `" OPCODE_JAL $end
$var parameter 7 a" OPCODE_JALR $end
$var parameter 7 b" OPCODE_LOAD $end
$var parameter 7 c" OPCODE_LUI $end
$var parameter 7 d" OPCODE_OP $end
$var parameter 7 e" OPCODE_STORE $end
$var parameter 7 f" OPCODE_SYSTEM $end
$var reg 32 g" selected_imm [31:0] $end
$upscope $end
$scope module u_reg_file $end
$var wire 1 ) clk $end
$var wire 32 h" rd_data [31:0] $end
$var wire 5 i" rs1_addr [4:0] $end
$var wire 5 j" rs2_addr [4:0] $end
$var wire 1 , rst_n $end
$var wire 1 4 wen $end
$var wire 32 k" rs2_data [31:0] $end
$var wire 32 l" rs1_data [31:0] $end
$var wire 5 m" rd_addr [4:0] $end
$var integer 32 n" i [31:0] $end
$upscope $end
$upscope $end
$scope module u_if_stage $end
$var wire 1 ) clk $end
$var wire 32 o" i_mem_addr [31:0] $end
$var wire 32 p" i_mem_rdata [31:0] $end
$var wire 32 q" if_id_instr_o [31:0] $end
$var wire 1 , rst_n $end
$var wire 32 r" if_id_pc_plus_4_o [31:0] $end
$var reg 32 s" pc_reg [31:0] $end
$upscope $end
$scope module u_mem_stage $end
$var wire 1 ) clk $end
$var wire 32 t" d_mem_addr_o [31:0] $end
$var wire 32 u" d_mem_rdata_i [31:0] $end
$var wire 32 v" d_mem_wdata_o [31:0] $end
$var wire 32 w" mem_rdata_o [31:0] $end
$var wire 32 x" rs2_data_i [31:0] $end
$var wire 1 , rst_n $end
$var wire 1 ` mem_write_i $end
$var wire 1 c mem_read_i $end
$var wire 4 y" d_mem_wen_o [3:0] $end
$var wire 32 z" alu_result_i [31:0] $end
$upscope $end
$scope module u_pipeline_reg_ex_mem $end
$var wire 1 ) clk $end
$var wire 32 {" ex_alu_result_i [31:0] $end
$var wire 1 Q ex_zero_flag_i $end
$var wire 1 , rst_n $end
$var wire 32 |" ex_rs2_data_i [31:0] $end
$var wire 1 V ex_reg_write_i $end
$var wire 5 }" ex_rd_addr_i [4:0] $end
$var wire 1 Y ex_mem_write_i $end
$var wire 2 ~" ex_mem_to_reg_i [1:0] $end
$var wire 1 [ ex_mem_read_i $end
$var parameter 1 !# NOP_MEM_READ $end
$var parameter 2 "# NOP_MEM_TO_REG $end
$var parameter 1 ## NOP_MEM_WRITE $end
$var parameter 1 $# NOP_REG_WRITE $end
$var reg 32 %# mem_alu_result_o [31:0] $end
$var reg 1 c mem_mem_read_o $end
$var reg 2 &# mem_mem_to_reg_o [1:0] $end
$var reg 1 ` mem_mem_write_o $end
$var reg 5 '# mem_rd_addr_o [4:0] $end
$var reg 1 3 mem_reg_write_o $end
$var reg 32 (# mem_rs2_data_o [31:0] $end
$var reg 1 2 mem_zero_flag_o $end
$upscope $end
$scope module u_pipeline_reg_id_ex $end
$var wire 1 ) clk $end
$var wire 4 )# id_alu_op_i [3:0] $end
$var wire 1 L id_alu_src_i $end
$var wire 32 *# id_imm_ext_i [31:0] $end
$var wire 1 I id_mem_read_i $end
$var wire 2 +# id_mem_to_reg_i [1:0] $end
$var wire 1 G id_mem_write_i $end
$var wire 5 ,# id_rd_addr_i [4:0] $end
$var wire 1 D id_reg_write_i $end
$var wire 5 -# id_rs1_addr_i [4:0] $end
$var wire 32 .# id_rs1_data_i [31:0] $end
$var wire 5 /# id_rs2_addr_i [4:0] $end
$var wire 32 0# id_rs2_data_i [31:0] $end
$var wire 1 , rst_n $end
$var wire 32 1# id_pc_plus_4_i [31:0] $end
$var parameter 4 2# NOP_ALU_OP $end
$var parameter 1 3# NOP_ALU_SRC $end
$var parameter 1 4# NOP_MEM_READ $end
$var parameter 2 5# NOP_MEM_TO_REG $end
$var parameter 1 6# NOP_MEM_WRITE $end
$var parameter 1 7# NOP_REG_WRITE $end
$var reg 4 8# ex_alu_op_o [3:0] $end
$var reg 1 ] ex_alu_src_o $end
$var reg 32 9# ex_imm_ext_o [31:0] $end
$var reg 1 [ ex_mem_read_o $end
$var reg 2 :# ex_mem_to_reg_o [1:0] $end
$var reg 1 Y ex_mem_write_o $end
$var reg 32 ;# ex_pc_plus_4_o [31:0] $end
$var reg 5 <# ex_rd_addr_o [4:0] $end
$var reg 1 V ex_reg_write_o $end
$var reg 5 =# ex_rs1_addr_o [4:0] $end
$var reg 32 ># ex_rs1_data_o [31:0] $end
$var reg 5 ?# ex_rs2_addr_o [4:0] $end
$var reg 32 @# ex_rs2_data_o [31:0] $end
$upscope $end
$scope module u_pipeline_reg_if_id $end
$var wire 1 ) clk $end
$var wire 32 A# if_instr_i [31:0] $end
$var wire 32 B# if_pc_plus_4_i [31:0] $end
$var wire 1 , rst_n $end
$var reg 32 C# id_instr_o [31:0] $end
$var reg 32 D# id_pc_plus_4_o [31:0] $end
$upscope $end
$scope module u_pipeline_reg_mem_wb $end
$var wire 1 ) clk $end
$var wire 32 E# mem_alu_result_i [31:0] $end
$var wire 2 F# mem_mem_to_reg_i [1:0] $end
$var wire 5 G# mem_rd_addr_i [4:0] $end
$var wire 32 H# mem_rdata_i [31:0] $end
$var wire 1 3 mem_reg_write_i $end
$var wire 1 , rst_n $end
$var parameter 2 I# NOP_MEM_TO_REG $end
$var parameter 1 J# NOP_REG_WRITE $end
$var reg 32 K# wb_alu_result_o [31:0] $end
$var reg 32 L# wb_mem_rdata_o [31:0] $end
$var reg 2 M# wb_mem_to_reg_o [1:0] $end
$var reg 5 N# wb_rd_addr_o [4:0] $end
$var reg 1 4 wb_reg_write_o $end
$upscope $end
$upscope $end
$upscope $end
$enddefinitions $end
$comment Show the parameter values. $end
$dumpall
0J#
b0 I#
07#
06#
b0 5#
04#
03#
b0 2#
0$#
0##
b0 "#
0!#
b1110011 f"
b100011 e"
b110011 d"
b110111 c"
b11 b"
b1100111 a"
b1101111 `"
b10011 _"
b1100011 ^"
b10111 ]"
b101111 \"
b100011 Q"
b110011 P"
b110111 O"
b11 N"
b1100111 M"
b1101111 L"
b10011 K"
b1100011 J"
b10111 I"
0H"
0G"
b0 F"
0E"
0D"
b0 C"
b110010 (
b10000000000 '
b111110100 &
b1010 %
$end
#0
$dumpvars
b0 N#
b0 M#
b0 L#
b0 K#
b0 H#
b0 G#
b0 F#
b0 E#
b0 D#
b10011 C#
b100 B#
b11100000000001010010011 A#
b0 @#
b0 ?#
b0 >#
b0 =#
b0 <#
b0 ;#
b0 :#
b0 9#
b0 8#
b0 1#
b0 0#
b0 /#
b0 .#
b0 -#
b0 ,#
b0 +#
b0 *#
b0 )#
b0 (#
b0 '#
b0 &#
b0 %#
b0 ~"
b0 }"
b0 |"
b0 {"
b0 z"
b0 y"
bz x"
b0 w"
bz v"
b0 u"
b0 t"
b0 s"
b100 r"
b11100000000001010010011 q"
b11100000000001010010011 p"
b0 o"
b100000 n"
b0 m"
b0 l"
b0 k"
b0 j"
b0 i"
b0 h"
b0 g"
b0 ["
b0 Z"
b0 Y"
b0 X"
b0 W"
b10011 V"
b10011 U"
b0 T"
b0 S"
b0 R"
b10011 B"
b0 A"
b0 @"
b0 ?"
b0 >"
b0 ="
b0 <"
b10011 ;"
b0 :"
b10011 9"
b0 8"
b0 7"
b0 6"
b0 5"
b0 4"
b0 3"
b0 2"
b0 1"
b0 0"
b0 /"
b0 ."
b0 -"
b0 ,"
b0 +"
b0 *"
b0 )"
b0 ("
b0 '"
bx &"
b0 %"
b0 $"
b0 #"
b0 ""
b0 !"
b0 ~
b0 }
b0 |
b0 {
b0 z
b0 y
b0 x
b0 w
b0 v
b0 u
b0 t
b0 s
b0 r
b0 q
b0 p
b0 o
b0 n
b0 m
b0 l
b0 k
b0 j
bx i
b0 h
b0 g
b0 f
b0 e
b0 d
0c
b0 b
b0 a
0`
b0 _
b0 ^
0]
b0 \
0[
b0 Z
0Y
b0 X
b0 W
0V
b0 U
b0 T
b0 S
b0 R
1Q
b0 P
b0 O
b0 N
b0 M
1L
b0 K
b10011 J
0I
b0 H
0G
b0 F
b0 E
1D
b0 C
b0 B
b0 A
b0 @
b11100000000001010010011 ?
b100 >
b0 =
b0 <
b0 ;
b0 :
b0 9
b0 8
b0 7
b0 6
b0 5
04
03
02
b0 1
b11100000000001010010011 0
b0 /
b10000000000 .
b0 -
0,
b11100000000001010010011 +
b0 *
0)
b0 $
b0 #
b0 "
b0 !
$end
#5000
b100000 n"
1)
#10000
0)
#15000
b100000 n"
1)
#20000
0)
#25000
b100000 n"
1)
#30000
0)
#35000
b100000 n"
1)
#40000
0)
#45000
b100000 n"
1)
#50000
0)
1,
#55000
b111 K
b111 <"
b111 T"
b111 *#
b111 g"
b11000000000001100010011 ?
b11000000000001100010011 q"
b11000000000001100010011 A#
b11000000000001100010011 +
b11000000000001100010011 0
b11000000000001100010011 p"
b100000000110 Y"
b11100000000000000000000 W"
b100000000100 ["
b101 X"
b111 Z"
b111 j"
b111 A
b111 0"
b111 /#
b111 4"
b101 E
b101 ."
b101 ,#
b101 7"
b1000 >
b1000 r"
b1000 B#
b100 !
b100 N
b100 o"
b100 s"
b11100000000001010010011 J
b11100000000001010010011 ;"
b11100000000001010010011 V"
b11100000000001010010011 C#
b100 -"
b100 1
b100 F
b100 8"
b100 1#
b100 D#
1V
1]
12
b1 -
1)
#60000
0)
#65000
0Q
b111 ^
b111 u
b111 {"
b111 v
b111 }
b111 {
b110 K
b110 <"
b110 T"
b110 *#
b110 g"
b111 w
b111 z
b110 Y"
b11000000000000000000000 W"
b110 ["
b110 X"
b110 Z"
b110 j"
b110 A
b110 0"
b110 /#
b110 4"
b110 E
b110 ."
b110 ,#
b110 7"
b10011000101000001110110011 ?
b10011000101000001110110011 q"
b10011000101000001110110011 A#
b10011000101000001110110011 +
b10011000101000001110110011 0
b10011000101000001110110011 p"
13
b101 W
b101 h
b101 }"
b101 <#
b111 S
b111 m
b111 ("
b111 ?#
b111 \
b111 l
b111 9#
b100 X
b100 ;#
b11000000000001100010011 J
b11000000000001100010011 ;"
b11000000000001100010011 V"
b11000000000001100010011 C#
b1000 -"
b1000 1
b1000 F
b1000 8"
b1000 1#
b1000 D#
b1100 >
b1100 r"
b1100 B#
b1000 !
b1000 N
b1000 o"
b1000 s"
b10 -
1)
#70000
0)
#75000
b110 ^
b110 u
b110 {"
b0 K
b0 <"
b0 T"
b0 *#
b0 g"
b1010 M
b1010 ?"
b1010 R"
b1010 )#
1D
0L
b110 v
b110 }
b110 {
b11111111110100000000010000010011 ?
b11111111110100000000010000010011 q"
b11111111110100000000010000010011 A#
b11111111110100000000010000010011 +
b11111111110100000000010000010011 0
b11111111110100000000010000010011 p"
b101000000000100110 Y"
b10011000101000000000000000 W"
b100000100110 ["
b100111 X"
b100110 Z"
b110011 U"
b101 i"
b1 ="
b1 A"
b101 C
b101 /"
b101 -#
b101 6"
b111 E
b111 ."
b111 ,#
b111 7"
b110011 9"
b110011 B"
b110 w
b110 z
b10000 >
b10000 r"
b10000 B#
b1100 !
b1100 N
b1100 o"
b1100 s"
b10011000101000001110110011 J
b10011000101000001110110011 ;"
b10011000101000001110110011 V"
b10011000101000001110110011 C#
b1100 -"
b1100 1
b1100 F
b1100 8"
b1100 1#
b1100 D#
b110 W
b110 h
b110 }"
b110 <#
b110 S
b110 m
b110 ("
b110 ?#
b110 \
b110 l
b110 9#
b1000 X
b1000 ;#
02
b101 5
b101 s
b101 *"
b101 '#
b101 G#
b111 $
b111 d
b111 t"
b111 <
b111 t
b111 z"
b111 %#
b111 E#
14
b11 -
1)
#80000
0)
#85000
b101010 $"
b101010 #"
b101010 ""
b111 e
b111 y
b111 p
b111 ~
b111 ;
b111 1"
b111 h"
b110 o
b110 !"
b110 {
b11111111111111111111111111111101 K
b11111111111111111111111111111101 <"
b11111111111111111111111111111101 T"
b11111111111111111111111111111101 *#
b11111111111111111111111111111101 g"
1L
1D
b0 M
b0 ?"
b0 R"
b0 )#
b101010 ^
b101010 u
b101010 {"
bx v
bx }
b101010 i
b101010 &"
b1 O
b1 q
b1 ,"
b10 P
b10 r
b10 +"
b110 w
b110 z
b11111111111100000000111111111100 Y"
b11111111110100000000000000000000 W"
b11111111111111111111011111101000 ["
b11111111111111111111111111101000 X"
b11111111111111111111111111111101 Z"
b10011 U"
b11101 j"
b0 i"
b1111111 ="
b1111111 A"
b11101 A
b11101 0"
b11101 /#
b11101 4"
b0 C
b0 /"
b0 -#
b0 6"
b1000 E
b1000 ."
b1000 ,#
b1000 7"
b10011 9"
b10011 B"
b10100000000010010010011 ?
b10100000000010010010011 q"
b10100000000010010010011 A#
b10100000000010010010011 +
b10100000000010010010011 0
b10100000000010010010011 p"
b101 6
b101 j
b101 '"
b101 2"
b101 m"
b101 N#
b111 =
b111 k
b111 K#
b110 5
b110 s
b110 *"
b110 '#
b110 G#
b110 $
b110 d
b110 t"
b110 <
b110 t
b110 z"
b110 %#
b110 E#
b1010 _
b1010 x
b1010 |
b1010 %"
b1010 8#
0]
b111 W
b111 h
b111 }"
b111 <#
b101 U
b101 n
b101 )"
b101 =#
b0 \
b0 l
b0 9#
b1100 X
b1100 ;#
b11111111110100000000010000010011 J
b11111111110100000000010000010011 ;"
b11111111110100000000010000010011 V"
b11111111110100000000010000010011 C#
b10000 -"
b10000 1
b10000 F
b10000 8"
b10000 1#
b10000 D#
b10100 >
b10100 r"
b10100 B#
b10000 !
b10000 N
b10000 o"
b10000 s"
b100 -
1)
#90000
0)
#95000
b101 K
b101 <"
b101 T"
b101 *#
b101 g"
b111 @
b111 3"
b111 k"
b111 0#
1D
1L
b11101 {
b0 e
b0 y
b0 p
b0 ~
b110 ;
b110 1"
b110 h"
b10100101000000010100110011 ?
b10100101000000010100110011 q"
b10100101000000010100110011 A#
b10100101000000010100110011 +
b10100101000000010100110011 0
b10100101000000010100110011 p"
b100000000100 Y"
b10100000000000000000000 W"
b100000001000 ["
b1001 X"
b101 Z"
b101 j"
b0 ="
b0 A"
b101 A
b101 0"
b101 /#
b101 4"
b1001 E
b1001 ."
b1001 ,#
b1001 7"
b11111111111111111111111111111101 ^
b11111111111111111111111111111101 u
b11111111111111111111111111111101 {"
b11111111111111111111111111111101 v
b11111111111111111111111111111101 }
bx i
bx &"
b11111111111111111111111111111101 w
b11111111111111111111111111111101 z
b0 $"
b0 #"
b0 ""
b0 o
b0 !"
b0 O
b0 q
b0 ,"
b0 P
b0 r
b0 +"
b11000 >
b11000 r"
b11000 B#
b10100 !
b10100 N
b10100 o"
b10100 s"
b10100000000010010010011 J
b10100000000010010010011 ;"
b10100000000010010010011 V"
b10100000000010010010011 C#
b10100 -"
b10100 1
b10100 F
b10100 8"
b10100 1#
b10100 D#
b0 _
b0 x
b0 |
b0 %"
b0 8#
1]
b1000 W
b1000 h
b1000 }"
b1000 <#
b11101 S
b11101 m
b11101 ("
b11101 ?#
b0 U
b0 n
b0 )"
b0 =#
b11111111111111111111111111111101 \
b11111111111111111111111111111101 l
b11111111111111111111111111111101 9#
b10000 X
b10000 ;#
b111 5
b111 s
b111 *"
b111 '#
b111 G#
b101010 $
b101010 d
b101010 t"
b101010 <
b101010 t
b101010 z"
b101010 %#
b101010 E#
b110 6
b110 j
b110 '"
b110 2"
b110 m"
b110 N#
b110 =
b110 k
b110 K#
b101 -
1)
#100000
0)
#105000
b101 ^
b101 u
b101 {"
b101010 ;
b101010 1"
b101010 h"
b101 v
b101 }
b101 {
b111 o
b111 !"
b0 K
b0 <"
b0 T"
b0 *#
b0 g"
b0 @
b0 3"
b0 k"
b0 0#
b1010 M
b1010 ?"
b1010 R"
b1010 )#
1D
0L
bx 9
bx w"
bx H#
bx *
bx /
bx u"
b101 w
b101 z
b1000000100000101000 Y"
b10100101000000000000000000 W"
b101010 ["
b101010 X"
b101001 Z"
b110011 U"
b1001 j"
b1000 i"
b1 ="
b1 A"
b1001 A
b1001 0"
b1001 /#
b1001 4"
b1000 C
b1000 /"
b1000 -#
b1000 6"
b1010 E
b1010 ."
b1010 ,#
b1010 7"
b110011 9"
b110011 B"
b100000000000010110010011 ?
b100000000000010110010011 q"
b100000000000010110010011 A#
b100000000000010110010011 +
b100000000000010110010011 0
b100000000000010110010011 p"
b111 6
b111 j
b111 '"
b111 2"
b111 m"
b111 N#
b101010 =
b101010 k
b101010 K#
b1000 5
b1000 s
b1000 *"
b1000 '#
b1000 G#
b11111111111111111111111111111101 $
b11111111111111111111111111111101 d
b11111111111111111111111111111101 t"
b11111111111111111111111111111101 <
b11111111111111111111111111111101 t
b11111111111111111111111111111101 z"
b11111111111111111111111111111101 %#
b11111111111111111111111111111101 E#
b1001 W
b1001 h
b1001 }"
b1001 <#
b101 S
b101 m
b101 ("
b101 ?#
b101 \
b101 l
b101 9#
b111 R
b111 f
b111 |"
b111 @#
b10100 X
b10100 ;#
b10100101000000010100110011 J
b10100101000000010100110011 ;"
b10100101000000010100110011 V"
b10100101000000010100110011 C#
b11000 -"
b11000 1
b11000 F
b11000 8"
b11000 1#
b11000 D#
b11100 >
b11100 r"
b11100 B#
b11000 !
b11000 N
b11000 o"
b11000 s"
b110 -
1)
#110000
0)
#115000
b1111111111111111111111111111111111111111111111111111111111110001 $"
b10011111111111111111111111111110001 #"
b10011111111111111111111111111110001 ""
b11111111111111111111111111111101 e
b11111111111111111111111111111101 y
b11111111111111111111111111111101 p
b11111111111111111111111111111101 ~
b1000 K
b1000 <"
b1000 T"
b1000 *#
b1000 g"
1L
1D
b0 M
b0 ?"
b0 R"
b0 )#
b101 {
b101 o
b101 !"
b11111111111111111111111111111101 ;
b11111111111111111111111111111101 1"
b11111111111111111111111111111101 h"
b11000000000011000010011 ?
b11000000000011000010011 q"
b11000000000011000010011 A#
b11000000000011000010011 +
b11000000000011000010011 0
b11000000000011000010011 p"
b1000 Y"
b100000000000000000000000 W"
b100000001010 ["
b1011 X"
b1000 Z"
b10011 U"
b1000 j"
b0 i"
b0 ="
b0 A"
b1000 A
b1000 0"
b1000 /#
b1000 4"
b0 C
b0 /"
b0 -#
b0 6"
b1011 E
b1011 ."
b1011 ,#
b1011 7"
b10011 9"
b10011 B"
b11111111111111111111111111110001 ^
b11111111111111111111111111110001 u
b11111111111111111111111111110001 {"
bx v
bx }
b11111111111111111111111111110001 i
b11111111111111111111111111110001 &"
b101 w
b101 z
b0 9
b0 w"
b0 H#
b0 *
b0 /
b0 u"
b1 O
b1 q
b1 ,"
b10 P
b10 r
b10 +"
b100000 >
b100000 r"
b100000 B#
b11100 !
b11100 N
b11100 o"
b11100 s"
b100000000000010110010011 J
b100000000000010110010011 ;"
b100000000000010110010011 V"
b100000000000010110010011 C#
b11100 -"
b11100 1
b11100 F
b11100 8"
b11100 1#
b11100 D#
b1010 _
b1010 x
b1010 |
b1010 %"
b1010 8#
0]
b1010 W
b1010 h
b1010 }"
b1010 <#
b1001 S
b1001 m
b1001 ("
b1001 ?#
b1000 U
b1000 n
b1000 )"
b1000 =#
b0 \
b0 l
b0 9#
b0 R
b0 f
b0 |"
b0 @#
b11000 X
b11000 ;#
b1001 5
b1001 s
b1001 *"
b1001 '#
b1001 G#
b111 #
b111 b
b111 (#
b101 $
b101 d
b101 t"
b101 <
b101 t
b101 z"
b101 %#
b101 E#
b1000 6
b1000 j
b1000 '"
b1000 2"
b1000 m"
b1000 N#
b11111111111111111111111111111101 =
b11111111111111111111111111111101 k
b11111111111111111111111111111101 K#
bx :
bx L#
b111 -
1)
#120000
0)
